obj_dir/wave.vcd
$version Generated by VerilatedVcd $end
$timescale 1ps $end
 $scope module TOP $end
  $scope module TB_WASM_TOP $end
   $var wire 1 O" clk $end
   $var wire 1 P" rst_n $end
   $var wire 1 e INSTR_ERROR $end
   $var wire 1 f instr_finish $end
   $var wire 1 g stack_full $end
   $var wire 6 S" read_pointer [5:0] $end
   $var wire 32 T" ALUResult [31:0] $end
   $var wire 1 U" stack_empty $end
   $var wire 32 h clk_cnt [31:0] $end
   $scope module u_wasm_top $end
    $var wire 1 O" i_clk $end
    $var wire 1 P" i_rst_n $end
    $var wire 1 e o_INSTR_ERROR $end
    $var wire 1 f o_instr_finish $end
    $var wire 1 g o_stack_full $end
    $var wire 32 i ALUResult [31:0] $end
    $var wire 1 j stack_empty $end
    $var wire 72 k Instr [71:0] $end
    $var wire 1 n Instr_vld $end
    $var wire 4 o read_pointer_shift_minusone [3:0] $end
    $var wire 1 p shift_vld $end
    $var wire 2 q pop_num [1:0] $end
    $var wire 2 r push_select [1:0] $end
    $var wire 5 s ALUControl [4:0] $end
    $var wire 1 t store_en $end
    $var wire 1 u load_en $end
    $var wire 1 v local_set $end
    $var wire 1 w local_get $end
    $var wire 32 x constant [31:0] $end
    $var wire 32 Q" load_data [31:0] $end
    $var wire 32 R" local_mem_data [31:0] $end
    $var wire 1 y load_vld $end
    $var wire 1 z push_num $end
    $var wire 32 # push_data [31:0] $end
    $var wire 96 { pop_window [95:0] $end
    $var wire 1 V" wr_req_vld $end
    $var wire 5 W" write_pointer_shift_minusone [4:0] $end
    $var wire 256 X" wr_data [255:0] $end
    $var wire 32 ~ A_store_data [31:0] $end
    $var wire 32 !! B_offset [31:0] $end
    $var wire 32 "! C [31:0] $end
    $scope module u_alu $end
     $var wire 32 ~ A [31:0] $end
     $var wire 32 !! B [31:0] $end
     $var wire 32 "! C [31:0] $end
     $var wire 5 s ALUControl [4:0] $end
     $var wire 32 i ALUResult [31:0] $end
     $var wire 1 #! C_out $end
     $var wire 32 $! sum [31:0] $end
     $var wire 32 %! eqz [31:0] $end
     $var wire 32 &! eq [31:0] $end
     $var wire 32 '! ne [31:0] $end
     $var wire 32 (! lt_u [31:0] $end
     $var wire 32 )! gt_u [31:0] $end
     $var wire 32 *! lt_s [31:0] $end
     $var wire 32 +! gt_s [31:0] $end
    $upscope $end
    $scope module u_ctrl_unit $end
     $var wire 1 O" clk $end
     $var wire 1 P" rst_n $end
     $var wire 72 k Instr [71:0] $end
     $var wire 1 n Instr_vld $end
     $var wire 4 o read_pointer_shift_minusone [3:0] $end
     $var wire 1 p shift_vld $end
     $var wire 1 e INSTR_ERROR $end
     $var wire 1 z push_num $end
     $var wire 2 q pop_num [1:0] $end
     $var wire 2 r push_select [1:0] $end
     $var wire 5 s ALUControl [4:0] $end
     $var wire 1 t store_en $end
     $var wire 1 u load_en $end
     $var wire 1 v local_set $end
     $var wire 1 w local_get $end
     $var wire 32 x constant [31:0] $end
     $var wire 1 f instr_finish $end
     $var wire 2 ,! instr_pointer_state [1:0] $end
     $var wire 2 `" module_head [1:0] $end
     $var wire 2 a" section_head [1:0] $end
     $var wire 2 b" vector_head [1:0] $end
     $var wire 2 c" vector_content [1:0] $end
     $var wire 32 d" global_variables[0] [31:0] $end
     $var wire 32 e" global_variables[1] [31:0] $end
     $var wire 32 f" global_variables[2] [31:0] $end
     $var wire 32 g" global_variables[3] [31:0] $end
     $var wire 32 h" global_variables[4] [31:0] $end
     $var wire 32 i" global_variables[5] [31:0] $end
     $var wire 32 j" global_variables[6] [31:0] $end
     $var wire 32 k" global_variables[7] [31:0] $end
     $var wire 32 l" global_variables[8] [31:0] $end
     $var wire 32 m" global_variables[9] [31:0] $end
     $var wire 32 n" global_variables[10] [31:0] $end
     $var wire 32 o" global_variables[11] [31:0] $end
     $var wire 32 p" global_variables[12] [31:0] $end
     $var wire 32 q" global_variables[13] [31:0] $end
     $var wire 32 r" global_variables[14] [31:0] $end
     $var wire 32 s" global_variables[15] [31:0] $end
     $var wire 8 t" global_var_type[0] [7:0] $end
     $var wire 8 u" global_var_type[1] [7:0] $end
     $var wire 8 v" global_var_type[2] [7:0] $end
     $var wire 8 w" global_var_type[3] [7:0] $end
     $var wire 8 x" global_var_type[4] [7:0] $end
     $var wire 8 y" global_var_type[5] [7:0] $end
     $var wire 8 z" global_var_type[6] [7:0] $end
     $var wire 8 {" global_var_type[7] [7:0] $end
     $var wire 8 |" global_var_type[8] [7:0] $end
     $var wire 8 }" global_var_type[9] [7:0] $end
     $var wire 8 ~" global_var_type[10] [7:0] $end
     $var wire 8 !# global_var_type[11] [7:0] $end
     $var wire 8 "# global_var_type[12] [7:0] $end
     $var wire 8 ## global_var_type[13] [7:0] $end
     $var wire 8 $# global_var_type[14] [7:0] $end
     $var wire 8 %# global_var_type[15] [7:0] $end
     $var wire 32 &# local_variables[0] [31:0] $end
     $var wire 32 '# local_variables[1] [31:0] $end
     $var wire 32 (# local_variables[2] [31:0] $end
     $var wire 32 )# local_variables[3] [31:0] $end
     $var wire 32 *# local_variables[4] [31:0] $end
     $var wire 32 +# local_variables[5] [31:0] $end
     $var wire 32 ,# local_variables[6] [31:0] $end
     $var wire 32 -# local_variables[7] [31:0] $end
     $var wire 32 .# local_variables[8] [31:0] $end
     $var wire 32 /# local_variables[9] [31:0] $end
     $var wire 32 0# local_variables[10] [31:0] $end
     $var wire 32 1# local_variables[11] [31:0] $end
     $var wire 32 2# local_variables[12] [31:0] $end
     $var wire 32 3# local_variables[13] [31:0] $end
     $var wire 32 4# local_variables[14] [31:0] $end
     $var wire 32 5# local_variables[15] [31:0] $end
     $var wire 36 -! LEB128_in [35:0] $end
     $var wire 32 x LEB128_decode [31:0] $end
     $var wire 3 /! LEB128_byte_cnt [2:0] $end
     $var wire 8 0! section_type [7:0] $end
     $var wire 32 1! section_length [31:0] $end
     $var wire 32 2! vector_num [31:0] $end
     $var wire 32 3! vector_cnt [31:0] $end
     $var wire 1 4! type_decode $end
     $var wire 8 5! para_num_reg[0] [7:0] $end
     $var wire 8 6! para_num_reg[1] [7:0] $end
     $var wire 8 7! para_num_reg[2] [7:0] $end
     $var wire 8 8! para_num_reg[3] [7:0] $end
     $var wire 8 9! para_num_reg[4] [7:0] $end
     $var wire 8 :! para_num_reg[5] [7:0] $end
     $var wire 8 ;! para_num_reg[6] [7:0] $end
     $var wire 8 <! para_num_reg[7] [7:0] $end
     $var wire 8 =! retu_num_reg[0] [7:0] $end
     $var wire 8 >! retu_num_reg[1] [7:0] $end
     $var wire 8 ?! retu_num_reg[2] [7:0] $end
     $var wire 8 @! retu_num_reg[3] [7:0] $end
     $var wire 8 A! retu_num_reg[4] [7:0] $end
     $var wire 8 B! retu_num_reg[5] [7:0] $end
     $var wire 8 C! retu_num_reg[6] [7:0] $end
     $var wire 8 D! retu_num_reg[7] [7:0] $end
     $var wire 8 E! function_num_reg [7:0] $end
     $var wire 72 F! function_type_list[0] [71:0] $end
     $var wire 72 I! function_type_list[1] [71:0] $end
     $var wire 72 L! function_type_list[2] [71:0] $end
     $var wire 72 O! function_type_list[3] [71:0] $end
     $var wire 72 R! function_type_list[4] [71:0] $end
     $var wire 72 U! function_type_list[5] [71:0] $end
     $var wire 72 X! function_type_list[6] [71:0] $end
     $var wire 72 [! function_type_list[7] [71:0] $end
     $var wire 72 ^! function_type_list[8] [71:0] $end
     $var wire 72 a! function_type_list[9] [71:0] $end
     $var wire 72 d! function_type_list[10] [71:0] $end
     $var wire 72 g! function_type_list[11] [71:0] $end
     $var wire 72 j! function_type_list[12] [71:0] $end
     $var wire 72 m! function_type_list[13] [71:0] $end
     $var wire 72 p! function_type_list[14] [71:0] $end
     $var wire 72 s! function_type_list[15] [71:0] $end
     $var wire 6 6# function_addr_list[0] [5:0] $end
     $var wire 6 7# function_addr_list[1] [5:0] $end
     $var wire 6 8# function_addr_list[2] [5:0] $end
     $var wire 6 9# function_addr_list[3] [5:0] $end
     $var wire 6 :# function_addr_list[4] [5:0] $end
     $var wire 6 ;# function_addr_list[5] [5:0] $end
     $var wire 6 <# function_addr_list[6] [5:0] $end
     $var wire 6 =# function_addr_list[7] [5:0] $end
     $var wire 6 ># function_addr_list[8] [5:0] $end
     $var wire 6 ?# function_addr_list[9] [5:0] $end
     $var wire 6 @# function_addr_list[10] [5:0] $end
     $var wire 6 A# function_addr_list[11] [5:0] $end
     $var wire 6 B# function_addr_list[12] [5:0] $end
     $var wire 6 C# function_addr_list[13] [5:0] $end
     $var wire 6 D# function_addr_list[14] [5:0] $end
     $var wire 6 E# function_addr_list[15] [5:0] $end
     $var wire 6 F# function_addr_list[16] [5:0] $end
     $var wire 6 G# function_addr_list[17] [5:0] $end
     $var wire 6 H# function_addr_list[18] [5:0] $end
     $var wire 6 I# function_addr_list[19] [5:0] $end
     $var wire 6 J# function_addr_list[20] [5:0] $end
     $var wire 6 K# function_addr_list[21] [5:0] $end
     $var wire 6 L# function_addr_list[22] [5:0] $end
     $var wire 6 M# function_addr_list[23] [5:0] $end
     $var wire 6 N# function_addr_list[24] [5:0] $end
     $var wire 6 O# function_addr_list[25] [5:0] $end
     $var wire 6 P# function_addr_list[26] [5:0] $end
     $var wire 6 Q# function_addr_list[27] [5:0] $end
     $var wire 6 R# function_addr_list[28] [5:0] $end
     $var wire 6 S# function_addr_list[29] [5:0] $end
     $var wire 6 T# function_addr_list[30] [5:0] $end
     $var wire 6 U# function_addr_list[31] [5:0] $end
     $var wire 8 v! para_num_reg0 [7:0] $end
     $var wire 8 w! retu_num_reg0 [7:0] $end
     $var wire 72 x! function_type_list0 [71:0] $end
     $var wire 4 {! function_store_addr [3:0] $end
     $scope module u_decode $end
      $var wire 36 -! LEB128_in [35:0] $end
      $var wire 32 x uint32_out [31:0] $end
      $var wire 3 /! byte_cnt [2:0] $end
      $var wire 1 |! en1 $end
      $var wire 1 }! en2 $end
      $var wire 1 ~! en3 $end
      $var wire 1 !" en4 $end
      $var wire 7 "" dt[0] [6:0] $end
      $var wire 7 #" dt[1] [6:0] $end
      $var wire 7 $" dt[2] [6:0] $end
      $var wire 7 %" dt[3] [6:0] $end
      $var wire 4 &" dt_4 [3:0] $end
     $upscope $end
    $upscope $end
    $scope module u_instr_mem_ctrl $end
     $var wire 32 V# ADDR_WIDTH [31:0] $end
     $var wire 32 W# DATA_WIDTH [31:0] $end
     $var wire 32 X# DEPTH [31:0] $end
     $var wire 1 O" clk $end
     $var wire 1 P" rst_n $end
     $var wire 1 p shift_vld $end
     $var wire 1 p re $end
     $var wire 4 o read_pointer_shift_minusone [3:0] $end
     $var wire 72 k rd_data [71:0] $end
     $var wire 1 n rd_data_vld $end
     $var wire 1 V" we $end
     $var wire 5 W" write_pointer_shift_minusone [4:0] $end
     $var wire 256 X" wr_data [255:0] $end
     $var wire 1 '" instr_finish $end
     $var wire 1 (" working $end
     $var wire 1 )" forward $end
     $var wire 6 *" read_pointer [5:0] $end
     $var wire 6 +" write_pointer [5:0] $end
    $upscope $end
    $scope module u_line_memory $end
     $var wire 32 Y# ADDR_WIDTH [31:0] $end
     $var wire 32 Z# DATA_WIDTH [31:0] $end
     $var wire 32 [# DEPTH [31:0] $end
     $var wire 1 O" clk $end
     $var wire 32 i addr [31:0] $end
     $var wire 1 u re $end
     $var wire 32 Q" rd_data [31:0] $end
     $var wire 1 y rd_data_vld $end
     $var wire 1 t we $end
     $var wire 32 ~ wr_data [31:0] $end
     $var wire 32 U bram[0] [31:0] $end
     $var wire 32 V bram[1] [31:0] $end
     $var wire 32 W bram[2] [31:0] $end
     $var wire 32 X bram[3] [31:0] $end
     $var wire 32 Y bram[4] [31:0] $end
     $var wire 32 Z bram[5] [31:0] $end
     $var wire 32 [ bram[6] [31:0] $end
     $var wire 32 \ bram[7] [31:0] $end
     $var wire 32 ] bram[8] [31:0] $end
     $var wire 32 ^ bram[9] [31:0] $end
     $var wire 32 _ bram[10] [31:0] $end
     $var wire 32 ` bram[11] [31:0] $end
     $var wire 32 a bram[12] [31:0] $end
     $var wire 32 b bram[13] [31:0] $end
     $var wire 32 c bram[14] [31:0] $end
     $var wire 32 d bram[15] [31:0] $end
    $upscope $end
    $scope module u_local_mem $end
     $var wire 32 Y# ADDR_WIDTH [31:0] $end
     $var wire 32 Z# DATA_WIDTH [31:0] $end
     $var wire 32 [# DEPTH [31:0] $end
     $var wire 1 O" clk $end
     $var wire 32 x addr [31:0] $end
     $var wire 32 R" rd_data [31:0] $end
     $var wire 1 v we $end
     $var wire 32 ~ wr_data [31:0] $end
     $var wire 32 E bram[0] [31:0] $end
     $var wire 32 F bram[1] [31:0] $end
     $var wire 32 G bram[2] [31:0] $end
     $var wire 32 H bram[3] [31:0] $end
     $var wire 32 I bram[4] [31:0] $end
     $var wire 32 J bram[5] [31:0] $end
     $var wire 32 K bram[6] [31:0] $end
     $var wire 32 L bram[7] [31:0] $end
     $var wire 32 M bram[8] [31:0] $end
     $var wire 32 N bram[9] [31:0] $end
     $var wire 32 O bram[10] [31:0] $end
     $var wire 32 P bram[11] [31:0] $end
     $var wire 32 Q bram[12] [31:0] $end
     $var wire 32 R bram[13] [31:0] $end
     $var wire 32 S bram[14] [31:0] $end
     $var wire 32 T bram[15] [31:0] $end
    $upscope $end
    $scope module u_stack $end
     $var wire 1 O" clk $end
     $var wire 1 P" rst_n $end
     $var wire 1 z push_num $end
     $var wire 2 q pop_num [1:0] $end
     $var wire 32 # push_data [31:0] $end
     $var wire 96 { pop_window [95:0] $end
     $var wire 1 g stack_full $end
     $var wire 1 j stack_empty $end
     $var wire 512 ," stack_reg [511:0] $end
     $var wire 512 <" stack_reg_after_pop [511:0] $end
     $var wire 512 $ stack_reg_after_push [511:0] $end
     $var wire 4 L" pointer [3:0] $end
     $var wire 4 M" pointer_after_pop [3:0] $end
     $var wire 4 N" pointer_after_push [3:0] $end
     $var wire 544 4 push_mid_state [543:0] $end
    $upscope $end
   $upscope $end
  $upscope $end
 $upscope $end
$enddefinitions $end


#0
b00000000000000000000000000000000 #
b00000000000000000000000000000000000000000000000000000000000000000000000000000000000000000000000000000000000000000000000000000000000000000000000000000000000000000000000000000000000000000000000000000000000000000000000000000000000000000000000000000000000000000000000000000000000000000000000000000000000000000000000000000000000000000000000000000000000000000000000000000000000000000000000000000000000000000000000000000000000000000000000000000000000000000000000000000000000000000000000000000000000000000000000000000000 $
b0000000000000000000000000000000000000000000000000000000000000000000000000000000000000000000000000000000000000000000000000000000000000000000000000000000000000000000000000000000000000000000000000000000000000000000000000000000000000000000000000000000000000000000000000000000000000000000000000000000000000000000000000000000000000000000000000000000000000000000000000000000000000000000000000000000000000000000000000000000000000000000000000000000000000000000000000000000000000000000000000000000000000000000000000000000000000000000000000000000000000000 4
b00000000000000000000000000001010 E
b00000000000000000000000000000110 F
b00000000000000000000000000000000 G
b00000000000000000000000000000000 H
b00000000000000000000000000000000 I
b00000000000000000000000000000000 J
b00000000000000000000000000000000 K
b00000000000000000000000000000000 L
b00000000000000000000000000000000 M
b00000000000000000000000000000000 N
b00000000000000000000000000000000 O
b00000000000000000000000000000000 P
b00000000000000000000000000000000 Q
b00000000000000000000000000000000 R
b00000000000000000000000000000000 S
b00000000000000000000000000000000 T
b00000000000000000000000000000000 U
b00000000000000000000000000000000 V
b00000000000000000000000000000000 W
b00000000000000000000000000000000 X
b00000000000000000000000000000000 Y
b00000000000000000000000000000000 Z
b00000000000000000000000000000000 [
b00000000000000000000000000000000 \
b00000000000000000000000000000000 ]
b00000000000000000000000000000000 ^
b00000000000000000000000000000000 _
b00000000000000000000000000000000 `
b00000000000000000000000000000000 a
b00000000000000000000000000000000 b
b00000000000000000000000000000000 c
b00000000000000000000000000000000 d
0e
0f
0g
b00000000000000000000000000000000 h
b00000000000000000000000000000000 i
1j
b000000000000000000000000000000000000000000000000000000000000000000000000 k
0n
b0111 o
0p
b00 q
b00 r
b00000 s
0t
0u
0v
0w
b00000000000000000000000000000000 x
0y
0z
b000000000000000000000000000000000000000000000000000000000000000000000000000000000000000000000000 {
b00000000000000000000000000000000 ~
b00000000000000000000000000000000 !!
b00000000000000000000000000000000 "!
0#!
b00000000000000000000000000000000 $!
b00000000000000000000000000000001 %!
b00000000000000000000000000000001 &!
b00000000000000000000000000000000 '!
b00000000000000000000000000000000 (!
b00000000000000000000000000000000 )!
b00000000000000000000000000000000 *!
b00000000000000000000000000000000 +!
b00 ,!
b000000000000000000000000000000000000 -!
b001 /!
b00000000 0!
b00000000000000000000000000000000 1!
b00000000000000000000000000000000 2!
b00000000000000000000000000000000 3!
04!
b00000000 5!
b00000000 6!
b00000000 7!
b00000000 8!
b00000000 9!
b00000000 :!
b00000000 ;!
b00000000 <!
b00000000 =!
b00000000 >!
b00000000 ?!
b00000000 @!
b00000000 A!
b00000000 B!
b00000000 C!
b00000000 D!
b00000000 E!
b000000000000000000000000000000000000000000000000000000000000000000000000 F!
b000000000000000000000000000000000000000000000000000000000000000000000000 I!
b000000000000000000000000000000000000000000000000000000000000000000000000 L!
b000000000000000000000000000000000000000000000000000000000000000000000000 O!
b000000000000000000000000000000000000000000000000000000000000000000000000 R!
b000000000000000000000000000000000000000000000000000000000000000000000000 U!
b000000000000000000000000000000000000000000000000000000000000000000000000 X!
b000000000000000000000000000000000000000000000000000000000000000000000000 [!
b000000000000000000000000000000000000000000000000000000000000000000000000 ^!
b000000000000000000000000000000000000000000000000000000000000000000000000 a!
b000000000000000000000000000000000000000000000000000000000000000000000000 d!
b000000000000000000000000000000000000000000000000000000000000000000000000 g!
b000000000000000000000000000000000000000000000000000000000000000000000000 j!
b000000000000000000000000000000000000000000000000000000000000000000000000 m!
b000000000000000000000000000000000000000000000000000000000000000000000000 p!
b000000000000000000000000000000000000000000000000000000000000000000000000 s!
b00000000 v!
b00000000 w!
b000000000000000000000000000000000000000000000000000000000000000000000000 x!
b0000 {!
0|!
0}!
0~!
0!"
b0000000 ""
b0000000 #"
b0000000 $"
b0000000 %"
b0000 &"
1'"
0("
0)"
b000000 *"
b000000 +"
b00000000000000000000000000000000000000000000000000000000000000000000000000000000000000000000000000000000000000000000000000000000000000000000000000000000000000000000000000000000000000000000000000000000000000000000000000000000000000000000000000000000000000000000000000000000000000000000000000000000000000000000000000000000000000000000000000000000000000000000000000000000000000000000000000000000000000000000000000000000000000000000000000000000000000000000000000000000000000000000000000000000000000000000000000000000 ,"
b00000000000000000000000000000000000000000000000000000000000000000000000000000000000000000000000000000000000000000000000000000000000000000000000000000000000000000000000000000000000000000000000000000000000000000000000000000000000000000000000000000000000000000000000000000000000000000000000000000000000000000000000000000000000000000000000000000000000000000000000000000000000000000000000000000000000000000000000000000000000000000000000000000000000000000000000000000000000000000000000000000000000000000000000000000000 <"
b0000 L"
b0000 M"
b0000 N"
0O"
1P"
b00000000000000000000000000000000 Q"
b00000000000000000000000000001010 R"
b000000 S"
b00000000000000000000000000000000 T"
0U"
0V"
b00000 W"
b0000000000000000000000000000000000000000000000000000000000000000000000000000000000000000000000000000000000000000000000000000000000000000000000000000000000000000000000000000000000000000000000000000000000000000000000000000000000000000000000000000000000000000 X"
b00 `"
b01 a"
b10 b"
b11 c"
b00000000000000000000000000000000 d"
b00000000000000000000000000000000 e"
b00000000000000000000000000000000 f"
b00000000000000000000000000000000 g"
b00000000000000000000000000000000 h"
b00000000000000000000000000000000 i"
b00000000000000000000000000000000 j"
b00000000000000000000000000000000 k"
b00000000000000000000000000000000 l"
b00000000000000000000000000000000 m"
b00000000000000000000000000000000 n"
b00000000000000000000000000000000 o"
b00000000000000000000000000000000 p"
b00000000000000000000000000000000 q"
b00000000000000000000000000000000 r"
b00000000000000000000000000000000 s"
b00000000 t"
b00000000 u"
b00000000 v"
b00000000 w"
b00000000 x"
b00000000 y"
b00000000 z"
b00000000 {"
b00000000 |"
b00000000 }"
b00000000 ~"
b00000000 !#
b00000000 "#
b00000000 ##
b00000000 $#
b00000000 %#
b00000000000000000000000000000000 &#
b00000000000000000000000000000000 '#
b00000000000000000000000000000000 (#
b00000000000000000000000000000000 )#
b00000000000000000000000000000000 *#
b00000000000000000000000000000000 +#
b00000000000000000000000000000000 ,#
b00000000000000000000000000000000 -#
b00000000000000000000000000000000 .#
b00000000000000000000000000000000 /#
b00000000000000000000000000000000 0#
b00000000000000000000000000000000 1#
b00000000000000000000000000000000 2#
b00000000000000000000000000000000 3#
b00000000000000000000000000000000 4#
b00000000000000000000000000000000 5#
b000000 6#
b000000 7#
b000000 8#
b000000 9#
b000000 :#
b000000 ;#
b000000 <#
b000000 =#
b000000 >#
b000000 ?#
b000000 @#
b000000 A#
b000000 B#
b000000 C#
b000000 D#
b000000 E#
b000000 F#
b000000 G#
b000000 H#
b000000 I#
b000000 J#
b000000 K#
b000000 L#
b000000 M#
b000000 N#
b000000 O#
b000000 P#
b000000 Q#
b000000 R#
b000000 S#
b000000 T#
b000000 U#
b00000000000000000000000000000110 V#
b00000000000000000000000000001000 W#
b00000000000000000000000001000000 X#
b00000000000000000000000000000100 Y#
b00000000000000000000000000100000 Z#
b00000000000000000000000000010000 [#
#1
1e
b00000000000000000000000000000001 h
1O"
#2
0e
b00000000000000000000000000000000 h
b000000010000000000000000000000000000000101101101011100110110000100000000 k
1n
1p
b00000000000000000000000001100001 x
b000000000001011011010111001101100001 -!
b1100001 ""
b1110011 #"
b1101101 $"
b0000001 %"
0'"
1("
1)"
b110100 +"
0O"
0P"
b00000000000000000000000000000110 R"
#3
1O"
#4
0O"
1P"
#5
b00000000000000000000000000000001 h
b011111110000000101111111011111110000001001100000000000010000011100000001 k
b0001 o
b00000000000000000000000000000111 x
b01 ,!
b111100000010011000000000000100000111 -!
b0000111 ""
b0000001 #"
b1100000 $"
b0000010 %"
b1111 &"
b001000 *"
1O"
b00000000000000000000000000000000 R"
#6
0O"
#7
b00000000000000000000000000000010 h
b000000100000001101111111000000010111111101111111000000100110000000000001 k
b0000 o
b00000000000000000000000000000001 x
b10 ,!
b111101111111000000100110000000000001 -!
b00000001 0!
b00000000000000000000000000000111 1!
b0000001 ""
b1100000 #"
b0000010 $"
b1111111 %"
b001010 *"
1O"
b00000000000000000000000000000110 R"
#8
0O"
#9
b00000000000000000000000000000011 h
b000000010000001000000011011111110000000101111111011111110000001001100000 k
b0011 o
b00000000000000000000000000000010 x
b11 ,!
b111100000001011111110111111100000010 -!
b00000000000000000000000000000001 2!
b0000010 ""
b1111111 #"
b1111111 $"
b0000001 %"
b001011 *"
1O"
b00000000000000000000000000000000 R"
#10
0O"
#11
b00000000000000000000000000000100 h
b000000010001000000001010000000000000000100000010000000110111111100000001 k
b0001 o
b00000000000000000000000001111111 x
b000000000001000000100000001101111111 -!
14!
b00000010 5!
b00000010 v!
b1111111 ""
b0000011 #"
b0000010 $"
b0000 &"
b001111 *"
1O"
#12
0O"
#13
b00000000000000000000000000000101 h
b000000000000111000000001000100000000101000000000000000010000001000000011 k
b00000000000000000000000000000010 x
b01 ,!
b000000001010000000000000000100000010 -!
04!
b00000001 =!
b00000001 w!
b0000010 ""
b0000001 #"
b0000000 $"
b0001010 %"
b010001 *"
1O"
#14
0O"
#15
b00000000000000000000000000000110 h
b000110010100000100000000000011100000000100010000000010100000000000000001 k
b0000 o
b00000000000000000000000000000001 x
b10 ,!
b000100010000000010100000000000000001 -!
b00000011 0!
b00000000000000000000000000000010 1!
b0000001 ""
b0000000 #"
b0001010 $"
b0010000 %"
b0001 &"
b010011 *"
1O"
b00000000000000000000000000000110 R"
#16
0O"
#17
b00000000000000000000000000000111 h
b001000000001100101000001000000000000111000000001000100000000101000000000 k
b00000000000000000000000000001010 x
b11 ,!
b000000001110000000010001000000001010 -!
b00000001 E!
b0001010 ""
b0010000 #"
b0000001 $"
b0001110 %"
b0000 &"
b010100 *"
1O"
b00000000000000000000000000000000 R"
#18
0O"
#19
b00000000000000000000000000001000 h
b000000010010000000011001010000010000000000001110000000010001000000001010 k
b0001 o
b00000000000000000000000000010000 x
b01 ,!
b000100000000000011100000000100010000 -!
b001000000001100101000001000000000000111000000001000100000000101000000000 F!
b001000000001100101000001000000000000111000000001000100000000101000000000 x!
b0010000 ""
b0000001 #"
b0001110 $"
b0000000 %"
b0001 &"
b010101 *"
1O"
b00000000000000000000000000001010 R"
#20
0O"
#21
b00000000000000000000000000001001 h
b001000000110101000000001001000000001100101000001000000000000111000000001 k
b0000 o
b00000000000000000000000000000001 x
b10 ,!
b100101000001000000000000111000000001 -!
b00001010 0!
b00000000000000000000000000010000 1!
b0000001 ""
b0001110 #"
b0000000 $"
b1000001 %"
b1001 &"
b010111 *"
1O"
b00000000000000000000000000000110 R"
#22
0O"
#23
b00000000000000000000000000001010 h
b000000000010000001101010000000010010000000011001010000010000000000001110 k
b00000000000000000000000000000000 x
b11 ,!
b000100100000000110010100000100000000 -!
b0000000 ""
b1000001 #"
b0011001 $"
b0100000 %"
b0001 &"
b011000 *"
1O"
b00000000000000000000000000001010 R"
#24
0O"
#25
b00000000000000000000000000001011 h
b010010010000000000100000011010100000000100100000000110010100000100000000 k
b00000000000000000000000001000001 x
b101000000001001000000001100101000001 -!
b00000000000000000000000000000001 3!
b1000001 ""
b0011001 #"
b0100000 $"
b0000001 %"
b1010 &"
b011001 *"
1O"
b00000000000000000000000000000110 R"
#26
0O"
#27
b00000000000000000000000000011001 #
b00000000000000000000000000000000000000000000000000000000000000000000000000000000000000000000000000000000000000000000000000000000000000000000000000000000000000000000000000000000000000000000000000000000000000000000000000000000000000000000000000000000000000000000000000000000000000000000000000000000000000000000000000000000000000000000000000000000000000000000000000000000000000000000000000000000000000000000000000000000000000000000000000000000000000000000000000000000000000000000000000000000000000000000000000011001 $
b0000000000000000000000000000000000000000000000000000000000000000000000000000000000000000000000000000000000000000000000000000000000000000000000000000000000000000000000000000000000000000000000000000000000000000000000000000000000000000000000000000000000000000000000000000000000000000000000000000000000000000000000000000000000000000000000000000000000000000000000000000000000000000000000000000000000000000000000000000000000000000000000000000000000000000000000000000000000000000000000000000000000000000000000000000000000000000000000000000000000011001 4
b00000000000000000000000000001100 h
b010001010100100100000000001000000110101000000001001000000001100101000001 k
b0001 o
b10 r
b00000000000000000000000000011001 x
1z
b000001101010000000010010000000011001 -!
b00000000000000000000000000000010 3!
b0011001 ""
b0100000 #"
b0000001 $"
b1101010 %"
b0000 &"
b011010 *"
b0001 N"
1O"
b00000000000000000000000000000000 R"
#28
0O"
#29
b00000000000000000000000000000110 #
b00000000000000000000000000000000000000000000000000000000000000000000000000000000000000000000000000000000000000000000000000000000000000000000000000000000000000000000000000000000000000000000000000000000000000000000000000000000000000000000000000000000000000000000000000000000000000000000000000000000000000000000000000000000000000000000000000000000000000000000000000000000000000000000000000000000000000000000000000000000000000000000000000000000000000000000000000000000000000000001100100000000000000000000000000000110 $
b0000000000000000000000000000000000000000000000000000000000000000000000000000000000000000000000000000000000000000000000000000000000000000000000000000000000000000000000000000000000000000000000000000000000000000000000000000000000000000000000000000000000000000000000000000000000000000000000000000000000000000000000000000000000000000000000000000000000000000000000000000000000000000000000000000000000000000000000000000000000000000000000000000000000000000000000000000000000000000000000000000000000000000000000000001100100000000000000000000000000000110 4
b00000000000000000000000000001101 h
b00000000000000000000000000011001 i
0j
b000001000100000101000101010010010000000000100000011010100000000100100000 k
b11 r
1w
b00000000000000000000000000000001 x
b000000000000000000000000000000000000000000000000000000000000000000000000000000000000000000011001 {
b00000000000000000000000000011001 ~
b00000000000000000000000000011001 $!
b00000000000000000000000000000000 %!
b00000000000000000000000000000000 &!
b00000000000000000000000000000001 '!
b00000000000000000000000000000001 (!
b00000000000000000000000000000001 *!
b100100000000001000000110101000000001 -!
b00000000000000000000000000000011 3!
b0000001 ""
b1101010 #"
b0100000 $"
b0000000 %"
b1001 &"
b011100 *"
b00000000000000000000000000000000000000000000000000000000000000000000000000000000000000000000000000000000000000000000000000000000000000000000000000000000000000000000000000000000000000000000000000000000000000000000000000000000000000000000000000000000000000000000000000000000000000000000000000000000000000000000000000000000000000000000000000000000000000000000000000000000000000000000000000000000000000000000000000000000000000000000000000000000000000000000000000000000000000000000000000000000000000000000000000011001 ,"
b00000000000000000000000000000000000000000000000000000000000000000000000000000000000000000000000000000000000000000000000000000000000000000000000000000000000000000000000000000000000000000000000000000000000000000000000000000000000000000000000000000000000000000000000000000000000000000000000000000000000000000000000000000000000000000000000000000000000000000000000000000000000000000000000000000000000000000000000000000000000000000000000000000000000000000000000000000000000000000000000000000000000000000000000000011001 <"
b0001 L"
b0001 M"
b0010 N"
1O"
b00000000000000000000000000000110 R"
#30
0O"
