obj_dir/wave.vcd
$version Generated by VerilatedVcd $end
$timescale 1ps $end
 $scope module TOP $end
  $scope module TB_WASM_TOP $end
   $var wire 1 A# clk $end
   $var wire 1 B# rst_n $end
   $var wire 1 e INSTR_ERROR $end
   $var wire 1 f instr_finish $end
   $var wire 1 g stack_full $end
   $var wire 8 E# read_pointer [7:0] $end
   $var wire 32 F# ALUResult [31:0] $end
   $var wire 1 G# stack_empty $end
   $var wire 32 h clk_cnt [31:0] $end
   $scope module u_wasm_top $end
    $var wire 1 A# i_clk $end
    $var wire 1 B# i_rst_n $end
    $var wire 1 e o_INSTR_ERROR $end
    $var wire 1 f o_instr_finish $end
    $var wire 1 g o_stack_full $end
    $var wire 32 i ALUResult [31:0] $end
    $var wire 1 j stack_empty $end
    $var wire 72 k Instr [71:0] $end
    $var wire 1 n Instr_vld $end
    $var wire 8 o read_pointer_shift_minusone [7:0] $end
    $var wire 1 p shift_vld $end
    $var wire 4 q pop_num [3:0] $end
    $var wire 2 r push_select [1:0] $end
    $var wire 5 s ALUControl [4:0] $end
    $var wire 1 t store_en $end
    $var wire 1 u load_en $end
    $var wire 1 v local_set $end
    $var wire 1 w local_get $end
    $var wire 32 x constant [31:0] $end
    $var wire 8 y read_pointer [7:0] $end
    $var wire 1 z jump_en $end
    $var wire 8 { jump_addr [7:0] $end
    $var wire 1 | hlt $end
    $var wire 32 C# load_data [31:0] $end
    $var wire 32 D# local_mem_data [31:0] $end
    $var wire 1 } load_vld $end
    $var wire 1 ~ push_num $end
    $var wire 32 # push_data [31:0] $end
    $var wire 512 !! pop_window [511:0] $end
    $var wire 1 H# wr_req_vld $end
    $var wire 5 I# write_pointer_shift_minusone [4:0] $end
    $var wire 256 J# wr_data [255:0] $end
    $var wire 32 1! A_store_data [31:0] $end
    $var wire 32 2! B_offset [31:0] $end
    $var wire 32 3! C [31:0] $end
    $scope module u_alu $end
     $var wire 32 1! A [31:0] $end
     $var wire 32 2! B [31:0] $end
     $var wire 32 3! C [31:0] $end
     $var wire 5 s ALUControl [4:0] $end
     $var wire 32 i ALUResult [31:0] $end
     $var wire 1 4! C_out $end
     $var wire 32 5! sum [31:0] $end
     $var wire 32 6! eqz [31:0] $end
     $var wire 32 7! eq [31:0] $end
     $var wire 32 8! ne [31:0] $end
     $var wire 32 9! lt_u [31:0] $end
     $var wire 32 :! gt_u [31:0] $end
     $var wire 32 ;! lt_s [31:0] $end
     $var wire 32 <! gt_s [31:0] $end
    $upscope $end
    $scope module u_ctrl_unit $end
     $var wire 1 A# clk $end
     $var wire 1 B# rst_n $end
     $var wire 8 y read_pointer [7:0] $end
     $var wire 72 k Instr [71:0] $end
     $var wire 1 n Instr_vld $end
     $var wire 8 o read_pointer_shift_minusone [7:0] $end
     $var wire 1 p shift_vld $end
     $var wire 1 e INSTR_ERROR $end
     $var wire 1 z jump_en $end
     $var wire 8 { jump_addr [7:0] $end
     $var wire 1 ~ push_num $end
     $var wire 4 q pop_num [3:0] $end
     $var wire 2 r push_select [1:0] $end
     $var wire 5 s ALUControl [4:0] $end
     $var wire 1 t store_en $end
     $var wire 1 u load_en $end
     $var wire 1 v local_set $end
     $var wire 1 w local_get $end
     $var wire 32 x constant [31:0] $end
     $var wire 1 | hlt $end
     $var wire 1 f instr_finish $end
     $var wire 1 R# un_hlt $end
     $var wire 2 =! instr_pointer_state [1:0] $end
     $var wire 2 S# module_head [1:0] $end
     $var wire 2 T# section_head [1:0] $end
     $var wire 2 U# vector_head [1:0] $end
     $var wire 2 V# vector_content [1:0] $end
     $var wire 32 W# global_variables[0] [31:0] $end
     $var wire 32 X# global_variables[1] [31:0] $end
     $var wire 32 Y# global_variables[2] [31:0] $end
     $var wire 32 Z# global_variables[3] [31:0] $end
     $var wire 32 [# global_variables[4] [31:0] $end
     $var wire 32 \# global_variables[5] [31:0] $end
     $var wire 32 ]# global_variables[6] [31:0] $end
     $var wire 32 ^# global_variables[7] [31:0] $end
     $var wire 32 _# global_variables[8] [31:0] $end
     $var wire 32 `# global_variables[9] [31:0] $end
     $var wire 32 a# global_variables[10] [31:0] $end
     $var wire 32 b# global_variables[11] [31:0] $end
     $var wire 32 c# global_variables[12] [31:0] $end
     $var wire 32 d# global_variables[13] [31:0] $end
     $var wire 32 e# global_variables[14] [31:0] $end
     $var wire 32 f# global_variables[15] [31:0] $end
     $var wire 8 g# global_var_type[0] [7:0] $end
     $var wire 8 h# global_var_type[1] [7:0] $end
     $var wire 8 i# global_var_type[2] [7:0] $end
     $var wire 8 j# global_var_type[3] [7:0] $end
     $var wire 8 k# global_var_type[4] [7:0] $end
     $var wire 8 l# global_var_type[5] [7:0] $end
     $var wire 8 m# global_var_type[6] [7:0] $end
     $var wire 8 n# global_var_type[7] [7:0] $end
     $var wire 8 o# global_var_type[8] [7:0] $end
     $var wire 8 p# global_var_type[9] [7:0] $end
     $var wire 8 q# global_var_type[10] [7:0] $end
     $var wire 8 r# global_var_type[11] [7:0] $end
     $var wire 8 s# global_var_type[12] [7:0] $end
     $var wire 8 t# global_var_type[13] [7:0] $end
     $var wire 8 u# global_var_type[14] [7:0] $end
     $var wire 8 v# global_var_type[15] [7:0] $end
     $var wire 32 w# local_variables[0] [31:0] $end
     $var wire 32 x# local_variables[1] [31:0] $end
     $var wire 32 y# local_variables[2] [31:0] $end
     $var wire 32 z# local_variables[3] [31:0] $end
     $var wire 32 {# local_variables[4] [31:0] $end
     $var wire 32 |# local_variables[5] [31:0] $end
     $var wire 32 }# local_variables[6] [31:0] $end
     $var wire 32 ~# local_variables[7] [31:0] $end
     $var wire 32 !$ local_variables[8] [31:0] $end
     $var wire 32 "$ local_variables[9] [31:0] $end
     $var wire 32 #$ local_variables[10] [31:0] $end
     $var wire 32 $$ local_variables[11] [31:0] $end
     $var wire 32 %$ local_variables[12] [31:0] $end
     $var wire 32 &$ local_variables[13] [31:0] $end
     $var wire 32 '$ local_variables[14] [31:0] $end
     $var wire 32 ($ local_variables[15] [31:0] $end
     $var wire 36 >! LEB128_in [35:0] $end
     $var wire 32 x LEB128_decode [31:0] $end
     $var wire 3 @! LEB128_byte_cnt [2:0] $end
     $var wire 8 A! section_type [7:0] $end
     $var wire 32 B! section_length [31:0] $end
     $var wire 32 C! vector_num [31:0] $end
     $var wire 32 D! vector_cnt [31:0] $end
     $var wire 1 E! type_decode $end
     $var wire 4 F! para_num_reg[0] [3:0] $end
     $var wire 4 G! para_num_reg[1] [3:0] $end
     $var wire 4 H! para_num_reg[2] [3:0] $end
     $var wire 4 I! para_num_reg[3] [3:0] $end
     $var wire 4 J! para_num_reg[4] [3:0] $end
     $var wire 4 K! para_num_reg[5] [3:0] $end
     $var wire 4 L! para_num_reg[6] [3:0] $end
     $var wire 4 M! para_num_reg[7] [3:0] $end
     $var wire 4 N! para_num_reg[8] [3:0] $end
     $var wire 4 O! para_num_reg[9] [3:0] $end
     $var wire 4 P! para_num_reg[10] [3:0] $end
     $var wire 4 Q! para_num_reg[11] [3:0] $end
     $var wire 4 R! para_num_reg[12] [3:0] $end
     $var wire 4 S! para_num_reg[13] [3:0] $end
     $var wire 4 T! para_num_reg[14] [3:0] $end
     $var wire 4 U! para_num_reg[15] [3:0] $end
     $var wire 4 V! para_num_reg[16] [3:0] $end
     $var wire 4 W! para_num_reg[17] [3:0] $end
     $var wire 4 X! para_num_reg[18] [3:0] $end
     $var wire 4 Y! para_num_reg[19] [3:0] $end
     $var wire 4 Z! para_num_reg[20] [3:0] $end
     $var wire 4 [! para_num_reg[21] [3:0] $end
     $var wire 4 \! para_num_reg[22] [3:0] $end
     $var wire 4 ]! para_num_reg[23] [3:0] $end
     $var wire 4 ^! para_num_reg[24] [3:0] $end
     $var wire 4 _! para_num_reg[25] [3:0] $end
     $var wire 4 `! para_num_reg[26] [3:0] $end
     $var wire 4 a! para_num_reg[27] [3:0] $end
     $var wire 4 b! para_num_reg[28] [3:0] $end
     $var wire 4 c! para_num_reg[29] [3:0] $end
     $var wire 4 d! para_num_reg[30] [3:0] $end
     $var wire 4 e! para_num_reg[31] [3:0] $end
     $var wire 4 f! retu_num_reg[0] [3:0] $end
     $var wire 4 g! retu_num_reg[1] [3:0] $end
     $var wire 4 h! retu_num_reg[2] [3:0] $end
     $var wire 4 i! retu_num_reg[3] [3:0] $end
     $var wire 4 j! retu_num_reg[4] [3:0] $end
     $var wire 4 k! retu_num_reg[5] [3:0] $end
     $var wire 4 l! retu_num_reg[6] [3:0] $end
     $var wire 4 m! retu_num_reg[7] [3:0] $end
     $var wire 4 n! retu_num_reg[8] [3:0] $end
     $var wire 4 o! retu_num_reg[9] [3:0] $end
     $var wire 4 p! retu_num_reg[10] [3:0] $end
     $var wire 4 q! retu_num_reg[11] [3:0] $end
     $var wire 4 r! retu_num_reg[12] [3:0] $end
     $var wire 4 s! retu_num_reg[13] [3:0] $end
     $var wire 4 t! retu_num_reg[14] [3:0] $end
     $var wire 4 u! retu_num_reg[15] [3:0] $end
     $var wire 4 v! retu_num_reg[16] [3:0] $end
     $var wire 4 w! retu_num_reg[17] [3:0] $end
     $var wire 4 x! retu_num_reg[18] [3:0] $end
     $var wire 4 y! retu_num_reg[19] [3:0] $end
     $var wire 4 z! retu_num_reg[20] [3:0] $end
     $var wire 4 {! retu_num_reg[21] [3:0] $end
     $var wire 4 |! retu_num_reg[22] [3:0] $end
     $var wire 4 }! retu_num_reg[23] [3:0] $end
     $var wire 4 ~! retu_num_reg[24] [3:0] $end
     $var wire 4 !" retu_num_reg[25] [3:0] $end
     $var wire 4 "" retu_num_reg[26] [3:0] $end
     $var wire 4 #" retu_num_reg[27] [3:0] $end
     $var wire 4 $" retu_num_reg[28] [3:0] $end
     $var wire 4 %" retu_num_reg[29] [3:0] $end
     $var wire 4 &" retu_num_reg[30] [3:0] $end
     $var wire 4 '" retu_num_reg[31] [3:0] $end
     $var wire 5 (" function_num_reg [4:0] $end
     $var wire 5 )" function_num_left [4:0] $end
     $var wire 72 *" function_type_list[0] [71:0] $end
     $var wire 72 -" function_type_list[1] [71:0] $end
     $var wire 72 0" function_type_list[2] [71:0] $end
     $var wire 72 3" function_type_list[3] [71:0] $end
     $var wire 72 6" function_type_list[4] [71:0] $end
     $var wire 72 9" function_type_list[5] [71:0] $end
     $var wire 72 <" function_type_list[6] [71:0] $end
     $var wire 72 ?" function_type_list[7] [71:0] $end
     $var wire 72 B" function_type_list[8] [71:0] $end
     $var wire 72 E" function_type_list[9] [71:0] $end
     $var wire 72 H" function_type_list[10] [71:0] $end
     $var wire 72 K" function_type_list[11] [71:0] $end
     $var wire 72 N" function_type_list[12] [71:0] $end
     $var wire 72 Q" function_type_list[13] [71:0] $end
     $var wire 72 T" function_type_list[14] [71:0] $end
     $var wire 72 W" function_type_list[15] [71:0] $end
     $var wire 8 Z" function_addr_list[0] [7:0] $end
     $var wire 8 [" function_addr_list[1] [7:0] $end
     $var wire 8 \" function_addr_list[2] [7:0] $end
     $var wire 8 ]" function_addr_list[3] [7:0] $end
     $var wire 8 ^" function_addr_list[4] [7:0] $end
     $var wire 8 _" function_addr_list[5] [7:0] $end
     $var wire 8 `" function_addr_list[6] [7:0] $end
     $var wire 8 a" function_addr_list[7] [7:0] $end
     $var wire 8 b" function_addr_list[8] [7:0] $end
     $var wire 8 c" function_addr_list[9] [7:0] $end
     $var wire 8 d" function_addr_list[10] [7:0] $end
     $var wire 8 e" function_addr_list[11] [7:0] $end
     $var wire 8 f" function_addr_list[12] [7:0] $end
     $var wire 8 g" function_addr_list[13] [7:0] $end
     $var wire 8 h" function_addr_list[14] [7:0] $end
     $var wire 8 i" function_addr_list[15] [7:0] $end
     $var wire 8 j" function_addr_list[16] [7:0] $end
     $var wire 8 k" function_addr_list[17] [7:0] $end
     $var wire 8 l" function_addr_list[18] [7:0] $end
     $var wire 8 m" function_addr_list[19] [7:0] $end
     $var wire 8 n" function_addr_list[20] [7:0] $end
     $var wire 8 o" function_addr_list[21] [7:0] $end
     $var wire 8 p" function_addr_list[22] [7:0] $end
     $var wire 8 q" function_addr_list[23] [7:0] $end
     $var wire 8 r" function_addr_list[24] [7:0] $end
     $var wire 8 s" function_addr_list[25] [7:0] $end
     $var wire 8 t" function_addr_list[26] [7:0] $end
     $var wire 8 u" function_addr_list[27] [7:0] $end
     $var wire 8 v" function_addr_list[28] [7:0] $end
     $var wire 8 w" function_addr_list[29] [7:0] $end
     $var wire 8 x" function_addr_list[30] [7:0] $end
     $var wire 8 y" function_addr_list[31] [7:0] $end
     $var wire 5 z" start_function_idx [4:0] $end
     $var wire 32 )$ global_mem[0] [31:0] $end
     $var wire 32 *$ global_mem[1] [31:0] $end
     $var wire 32 +$ global_mem[2] [31:0] $end
     $var wire 32 ,$ global_mem[3] [31:0] $end
     $var wire 32 -$ global_mem[4] [31:0] $end
     $var wire 32 .$ global_mem[5] [31:0] $end
     $var wire 32 /$ global_mem[6] [31:0] $end
     $var wire 32 0$ global_mem[7] [31:0] $end
     $var wire 1 {" function_num_flag $end
     $var wire 1 |" code_pre_read $end
     $var wire 4 }" function_store_addr [3:0] $end
     $scope module u_decode $end
      $var wire 36 >! LEB128_in [35:0] $end
      $var wire 32 x uint32_out [31:0] $end
      $var wire 3 @! byte_cnt [2:0] $end
      $var wire 1 ~" en1 $end
      $var wire 1 !# en2 $end
      $var wire 1 "# en3 $end
      $var wire 1 ## en4 $end
      $var wire 7 $# dt[0] [6:0] $end
      $var wire 7 %# dt[1] [6:0] $end
      $var wire 7 &# dt[2] [6:0] $end
      $var wire 7 '# dt[3] [6:0] $end
      $var wire 4 (# dt_4 [3:0] $end
     $upscope $end
    $upscope $end
    $scope module u_instr_mem_ctrl $end
     $var wire 32 1$ ADDR_WIDTH [31:0] $end
     $var wire 32 1$ DATA_WIDTH [31:0] $end
     $var wire 32 2$ DEPTH [31:0] $end
     $var wire 1 A# clk $end
     $var wire 1 B# rst_n $end
     $var wire 1 p shift_vld $end
     $var wire 1 | hlt $end
     $var wire 1 p re $end
     $var wire 8 o read_pointer_shift_minusone [7:0] $end
     $var wire 72 k rd_data [71:0] $end
     $var wire 1 n rd_data_vld $end
     $var wire 1 H# we $end
     $var wire 5 I# write_pointer_shift_minusone [4:0] $end
     $var wire 256 J# wr_data [255:0] $end
     $var wire 1 z jump_en $end
     $var wire 8 { jump_addr [7:0] $end
     $var wire 1 )# instr_finish $end
     $var wire 8 y read_pointer_out [7:0] $end
     $var wire 8 *# read_pointer [7:0] $end
     $var wire 1 +# working $end
     $var wire 1 ,# forward $end
     $var wire 8 -# write_pointer [7:0] $end
    $upscope $end
    $scope module u_line_memory $end
     $var wire 32 3$ ADDR_WIDTH [31:0] $end
     $var wire 32 4$ DATA_WIDTH [31:0] $end
     $var wire 32 5$ DEPTH [31:0] $end
     $var wire 1 A# clk $end
     $var wire 32 i addr [31:0] $end
     $var wire 1 u re $end
     $var wire 32 C# rd_data [31:0] $end
     $var wire 1 } rd_data_vld $end
     $var wire 1 t we $end
     $var wire 32 1! wr_data [31:0] $end
     $var wire 32 U bram[0] [31:0] $end
     $var wire 32 V bram[1] [31:0] $end
     $var wire 32 W bram[2] [31:0] $end
     $var wire 32 X bram[3] [31:0] $end
     $var wire 32 Y bram[4] [31:0] $end
     $var wire 32 Z bram[5] [31:0] $end
     $var wire 32 [ bram[6] [31:0] $end
     $var wire 32 \ bram[7] [31:0] $end
     $var wire 32 ] bram[8] [31:0] $end
     $var wire 32 ^ bram[9] [31:0] $end
     $var wire 32 _ bram[10] [31:0] $end
     $var wire 32 ` bram[11] [31:0] $end
     $var wire 32 a bram[12] [31:0] $end
     $var wire 32 b bram[13] [31:0] $end
     $var wire 32 c bram[14] [31:0] $end
     $var wire 32 d bram[15] [31:0] $end
    $upscope $end
    $scope module u_local_mem $end
     $var wire 32 3$ ADDR_WIDTH [31:0] $end
     $var wire 32 4$ DATA_WIDTH [31:0] $end
     $var wire 32 5$ DEPTH [31:0] $end
     $var wire 1 A# clk $end
     $var wire 32 x addr [31:0] $end
     $var wire 32 D# rd_data [31:0] $end
     $var wire 1 v we $end
     $var wire 32 1! wr_data [31:0] $end
     $var wire 32 E bram[0] [31:0] $end
     $var wire 32 F bram[1] [31:0] $end
     $var wire 32 G bram[2] [31:0] $end
     $var wire 32 H bram[3] [31:0] $end
     $var wire 32 I bram[4] [31:0] $end
     $var wire 32 J bram[5] [31:0] $end
     $var wire 32 K bram[6] [31:0] $end
     $var wire 32 L bram[7] [31:0] $end
     $var wire 32 M bram[8] [31:0] $end
     $var wire 32 N bram[9] [31:0] $end
     $var wire 32 O bram[10] [31:0] $end
     $var wire 32 P bram[11] [31:0] $end
     $var wire 32 Q bram[12] [31:0] $end
     $var wire 32 R bram[13] [31:0] $end
     $var wire 32 S bram[14] [31:0] $end
     $var wire 32 T bram[15] [31:0] $end
    $upscope $end
    $scope module u_stack $end
     $var wire 1 A# clk $end
     $var wire 1 B# rst_n $end
     $var wire 1 ~ push_num $end
     $var wire 4 q pop_num [3:0] $end
     $var wire 32 # push_data [31:0] $end
     $var wire 512 !! pop_window [511:0] $end
     $var wire 1 g stack_full $end
     $var wire 1 j stack_empty $end
     $var wire 512 !! stack_reg [511:0] $end
     $var wire 512 .# stack_reg_after_pop [511:0] $end
     $var wire 512 $ stack_reg_after_push [511:0] $end
     $var wire 4 ># pointer [3:0] $end
     $var wire 4 ?# pointer_after_pop [3:0] $end
     $var wire 4 @# pointer_after_push [3:0] $end
     $var wire 544 4 push_mid_state [543:0] $end
    $upscope $end
   $upscope $end
  $upscope $end
 $upscope $end
$enddefinitions $end


#0
b00000000000000000000000000000000 #
b00000000000000000000000000000000000000000000000000000000000000000000000000000000000000000000000000000000000000000000000000000000000000000000000000000000000000000000000000000000000000000000000000000000000000000000000000000000000000000000000000000000000000000000000000000000000000000000000000000000000000000000000000000000000000000000000000000000000000000000000000000000000000000000000000000000000000000000000000000000000000000000000000000000000000000000000000000000000000000000000000000000000000000000000000000000 $
b0000000000000000000000000000000000000000000000000000000000000000000000000000000000000000000000000000000000000000000000000000000000000000000000000000000000000000000000000000000000000000000000000000000000000000000000000000000000000000000000000000000000000000000000000000000000000000000000000000000000000000000000000000000000000000000000000000000000000000000000000000000000000000000000000000000000000000000000000000000000000000000000000000000000000000000000000000000000000000000000000000000000000000000000000000000000000000000000000000000000000000 4
b00000000000000000000000000001010 E
b00000000000000000000000000000110 F
b00000000000000000000000000000000 G
b00000000000000000000000000000000 H
b00000000000000000000000000000000 I
b00000000000000000000000000000000 J
b00000000000000000000000000000000 K
b00000000000000000000000000000000 L
b00000000000000000000000000000000 M
b00000000000000000000000000000000 N
b00000000000000000000000000000000 O
b00000000000000000000000000000000 P
b00000000000000000000000000000000 Q
b00000000000000000000000000000000 R
b00000000000000000000000000000000 S
b00000000000000000000000000000000 T
b00000000000000000000000000000000 U
b00000000000000000000000000000000 V
b00000000000000000000000000000000 W
b00000000000000000000000000000000 X
b00000000000000000000000000000000 Y
b00000000000000000000000000000000 Z
b00000000000000000000000000000000 [
b00000000000000000000000000000000 \
b00000000000000000000000000000000 ]
b00000000000000000000000000000000 ^
b00000000000000000000000000000000 _
b00000000000000000000000000000000 `
b00000000000000000000000000000000 a
b00000000000000000000000000000000 b
b00000000000000000000000000000000 c
b00000000000000000000000000000000 d
0e
0f
0g
b00000000000000000000000000000000 h
b00000000000000000000000000000000 i
1j
b000000000000000000000000000000000000000000000000000000000000000000000000 k
0n
b00000111 o
0p
b0000 q
b00 r
b00000 s
0t
0u
0v
0w
b00000000000000000000000000000000 x
b00000000 y
0z
b00000000 {
0|
0}
0~
b00000000000000000000000000000000000000000000000000000000000000000000000000000000000000000000000000000000000000000000000000000000000000000000000000000000000000000000000000000000000000000000000000000000000000000000000000000000000000000000000000000000000000000000000000000000000000000000000000000000000000000000000000000000000000000000000000000000000000000000000000000000000000000000000000000000000000000000000000000000000000000000000000000000000000000000000000000000000000000000000000000000000000000000000000000000 !!
b00000000000000000000000000000000 1!
b00000000000000000000000000000000 2!
b00000000000000000000000000000000 3!
04!
b00000000000000000000000000000000 5!
b00000000000000000000000000000001 6!
b00000000000000000000000000000001 7!
b00000000000000000000000000000000 8!
b00000000000000000000000000000000 9!
b00000000000000000000000000000000 :!
b00000000000000000000000000000000 ;!
b00000000000000000000000000000000 <!
b00 =!
b000000000000000000000000000000000000 >!
b001 @!
b00000000 A!
b00000000000000000000000000000000 B!
b00000000000000000000000000000000 C!
b00000000000000000000000000000000 D!
0E!
b0000 F!
b0000 G!
b0000 H!
b0000 I!
b0000 J!
b0000 K!
b0000 L!
b0000 M!
b0000 N!
b0000 O!
b0000 P!
b0000 Q!
b0000 R!
b0000 S!
b0000 T!
b0000 U!
b0000 V!
b0000 W!
b0000 X!
b0000 Y!
b0000 Z!
b0000 [!
b0000 \!
b0000 ]!
b0000 ^!
b0000 _!
b0000 `!
b0000 a!
b0000 b!
b0000 c!
b0000 d!
b0000 e!
b0000 f!
b0000 g!
b0000 h!
b0000 i!
b0000 j!
b0000 k!
b0000 l!
b0000 m!
b0000 n!
b0000 o!
b0000 p!
b0000 q!
b0000 r!
b0000 s!
b0000 t!
b0000 u!
b0000 v!
b0000 w!
b0000 x!
b0000 y!
b0000 z!
b0000 {!
b0000 |!
b0000 }!
b0000 ~!
b0000 !"
b0000 ""
b0000 #"
b0000 $"
b0000 %"
b0000 &"
b0000 '"
b00000 ("
b00000 )"
b000000000000000000000000000000000000000000000000000000000000000000000000 *"
b000000000000000000000000000000000000000000000000000000000000000000000000 -"
b000000000000000000000000000000000000000000000000000000000000000000000000 0"
b000000000000000000000000000000000000000000000000000000000000000000000000 3"
b000000000000000000000000000000000000000000000000000000000000000000000000 6"
b000000000000000000000000000000000000000000000000000000000000000000000000 9"
b000000000000000000000000000000000000000000000000000000000000000000000000 <"
b000000000000000000000000000000000000000000000000000000000000000000000000 ?"
b000000000000000000000000000000000000000000000000000000000000000000000000 B"
b000000000000000000000000000000000000000000000000000000000000000000000000 E"
b000000000000000000000000000000000000000000000000000000000000000000000000 H"
b000000000000000000000000000000000000000000000000000000000000000000000000 K"
b000000000000000000000000000000000000000000000000000000000000000000000000 N"
b000000000000000000000000000000000000000000000000000000000000000000000000 Q"
b000000000000000000000000000000000000000000000000000000000000000000000000 T"
b000000000000000000000000000000000000000000000000000000000000000000000000 W"
b00000000 Z"
b00000000 ["
b00000000 \"
b00000000 ]"
b00000000 ^"
b00000000 _"
b00000000 `"
b00000000 a"
b00000000 b"
b00000000 c"
b00000000 d"
b00000000 e"
b00000000 f"
b00000000 g"
b00000000 h"
b00000000 i"
b00000000 j"
b00000000 k"
b00000000 l"
b00000000 m"
b00000000 n"
b00000000 o"
b00000000 p"
b00000000 q"
b00000000 r"
b00000000 s"
b00000000 t"
b00000000 u"
b00000000 v"
b00000000 w"
b00000000 x"
b00000000 y"
b00000 z"
1{"
0|"
b0000 }"
0~"
0!#
0"#
0##
b0000000 $#
b0000000 %#
b0000000 &#
b0000000 '#
b0000 (#
1)#
b00000000 *#
0+#
0,#
b00000000 -#
b00000000000000000000000000000000000000000000000000000000000000000000000000000000000000000000000000000000000000000000000000000000000000000000000000000000000000000000000000000000000000000000000000000000000000000000000000000000000000000000000000000000000000000000000000000000000000000000000000000000000000000000000000000000000000000000000000000000000000000000000000000000000000000000000000000000000000000000000000000000000000000000000000000000000000000000000000000000000000000000000000000000000000000000000000000000 .#
b0000 >#
b0000 ?#
b0000 @#
0A#
1B#
b00000000000000000000000000000000 C#
b00000000000000000000000000001010 D#
b00000000 E#
b00000000000000000000000000000000 F#
0G#
0H#
b00000 I#
b0000000000000000000000000000000000000000000000000000000000000000000000000000000000000000000000000000000000000000000000000000000000000000000000000000000000000000000000000000000000000000000000000000000000000000000000000000000000000000000000000000000000000000 J#
0R#
b00 S#
b01 T#
b10 U#
b11 V#
b00000000000000000000000000000000 W#
b00000000000000000000000000000000 X#
b00000000000000000000000000000000 Y#
b00000000000000000000000000000000 Z#
b00000000000000000000000000000000 [#
b00000000000000000000000000000000 \#
b00000000000000000000000000000000 ]#
b00000000000000000000000000000000 ^#
b00000000000000000000000000000000 _#
b00000000000000000000000000000000 `#
b00000000000000000000000000000000 a#
b00000000000000000000000000000000 b#
b00000000000000000000000000000000 c#
b00000000000000000000000000000000 d#
b00000000000000000000000000000000 e#
b00000000000000000000000000000000 f#
b00000000 g#
b00000000 h#
b00000000 i#
b00000000 j#
b00000000 k#
b00000000 l#
b00000000 m#
b00000000 n#
b00000000 o#
b00000000 p#
b00000000 q#
b00000000 r#
b00000000 s#
b00000000 t#
b00000000 u#
b00000000 v#
b00000000000000000000000000000000 w#
b00000000000000000000000000000000 x#
b00000000000000000000000000000000 y#
b00000000000000000000000000000000 z#
b00000000000000000000000000000000 {#
b00000000000000000000000000000000 |#
b00000000000000000000000000000000 }#
b00000000000000000000000000000000 ~#
b00000000000000000000000000000000 !$
b00000000000000000000000000000000 "$
b00000000000000000000000000000000 #$
b00000000000000000000000000000000 $$
b00000000000000000000000000000000 %$
b00000000000000000000000000000000 &$
b00000000000000000000000000000000 '$
b00000000000000000000000000000000 ($
b00000000000000000000000000000000 )$
b00000000000000000000000000000000 *$
b00000000000000000000000000000000 +$
b00000000000000000000000000000000 ,$
b00000000000000000000000000000000 -$
b00000000000000000000000000000000 .$
b00000000000000000000000000000000 /$
b00000000000000000000000000000000 0$
b00000000000000000000000000001000 1$
b00000000000000000000000100000000 2$
b00000000000000000000000000000100 3$
b00000000000000000000000000100000 4$
b00000000000000000000000000010000 5$
#1
1e
b00000000000000000000000000000001 h
1A#
#2
0e
b00000000000000000000000000000000 h
b000000010000000000000000000000000000000101101101011100110110000100000000 k
1n
1p
b00000000000000000000000001100001 x
b000000000001011011010111001101100001 >!
b1100001 $#
b1110011 %#
b1101101 &#
b0000001 '#
0)#
1+#
1,#
b00110100 -#
0A#
0B#
b00000000000000000000000000000110 D#
#3
1A#
#4
0A#
1B#
#5
b00000000000000000000000000000001 h
b011111110000000101111111011111110000001001100000000000010000011100000001 k
b00000001 o
b00000000000000000000000000000111 x
b00001000 y
b01 =!
b111100000010011000000000000100000111 >!
b0000111 $#
b0000001 %#
b1100000 &#
b0000010 '#
b1111 (#
b00001000 *#
1A#
b00000000000000000000000000000000 D#
#6
0A#
#7
b00000000000000000000000000000010 h
b000000100000001101111111000000010111111101111111000000100110000000000001 k
b00000000 o
b00000000000000000000000000000001 x
b00001010 y
b10 =!
b111101111111000000100110000000000001 >!
b00000001 A!
b00000000000000000000000000000111 B!
b0000001 $#
b1100000 %#
b0000010 &#
b1111111 '#
b00001010 *#
1A#
b00000000000000000000000000000110 D#
#8
0A#
#9
b00000000000000000000000000000011 h
b000000010000001000000011011111110000000101111111011111110000001001100000 k
b00000011 o
b00000000000000000000000000000010 x
b00001011 y
b11 =!
b111100000001011111110111111100000010 >!
b00000000000000000000000000000001 C!
b0000010 $#
b1111111 %#
b1111111 &#
b0000001 '#
b00001011 *#
1A#
b00000000000000000000000000000000 D#
#10
0A#
#11
b00000000000000000000000000000100 h
b000000010001000000001010000000000000000100000010000000110111111100000001 k
b00000001 o
b00000000000000000000000001111111 x
b00001111 y
b000000000001000000100000001101111111 >!
1E!
b0010 F!
b1111111 $#
b0000011 %#
b0000010 &#
b0000 (#
b00001111 *#
1A#
#12
0A#
#13
b00000000000000000000000000000101 h
b000000000000111000000001000100000000101000000000000000010000001000000011 k
b00000000000000000000000000000010 x
b00010001 y
b01 =!
b000000001010000000000000000100000010 >!
0E!
b0001 f!
b0000010 $#
b0000001 %#
b0000000 &#
b0001010 '#
b00010001 *#
1A#
#14
0A#
#15
b00000000000000000000000000000110 h
b000110010100000100000000000011100000000100010000000010100000000000000001 k
b00000000 o
b00000000000000000000000000000001 x
b00010011 y
b10 =!
b000100010000000010100000000000000001 >!
b00000011 A!
b00000000000000000000000000000010 B!
b0000001 $#
b0000000 %#
b0001010 &#
b0010000 '#
b0001 (#
b00010011 *#
1A#
b00000000000000000000000000000110 D#
#16
0A#
#17
b00000000000000000000000000000111 h
b001000000001100101000001000000000000111000000001000100000000101000000000 k
b00000000000000000000000000001010 x
b00010100 y
b11 =!
b000000001110000000010001000000001010 >!
b00001 ("
b00001 )"
b0001010 $#
b0010000 %#
b0000001 &#
b0001110 '#
b0000 (#
b00010100 *#
1A#
b00000000000000000000000000000000 D#
#18
0A#
#19
b00000000000000000000000000001000 h
b000000010010000000011001010000010000000000001110000000010001000000001010 k
b00000001 o
b00000000000000000000000000010000 x
b00010101 y
b01 =!
b000100000000000011100000000100010000 >!
b001000000001100101000001000000000000111000000001000100000000101000000000 *"
b0010000 $#
b0000001 %#
b0001110 &#
b0000000 '#
b0001 (#
b00010101 *#
1A#
b00000000000000000000000000001010 D#
#20
0A#
#21
b00000000000000000000000000001001 h
b001000000110101000000001001000000001100101000001000000000000111000000001 k
b00000000 o
b00000000000000000000000000000001 x
b00010111 y
b10 =!
b100101000001000000000000111000000001 >!
b00001010 A!
b00000000000000000000000000010000 B!
b0000001 $#
b0001110 %#
b0000000 &#
b1000001 '#
b1001 (#
b00010111 *#
1A#
b00000000000000000000000000000110 D#
#22
0A#
#23
b00000000000000000000000000001010 h
b000000000010000001101010000000010010000000011001010000010000000000001110 k
b00001110 o
b00000000000000000000000000001110 x
b00011000 y
b11 =!
b000000011001010000010000000000001110 >!
1|"
b0001110 $#
b0000000 %#
b1000001 &#
b0011001 '#
b0000 (#
b00011000 *#
1A#
b00000000000000000000000000000000 D#
#24
0A#
