obj_dir/wave.vcd
$version Generated by VerilatedVcd $end
$timescale 1ps $end
 $scope module TOP $end
  $scope module TB_WASM_TOP $end
   $var wire 1 q" clk $end
   $var wire 1 r" rst_n $end
   $var wire 1 e INSTR_ERROR $end
   $var wire 1 f instr_finish $end
   $var wire 1 g stack_full $end
   $var wire 8 u" read_pointer [7:0] $end
   $var wire 32 v" ALUResult [31:0] $end
   $var wire 1 w" stack_empty $end
   $var wire 32 h clk_cnt [31:0] $end
   $scope module u_wasm_top $end
    $var wire 1 q" i_clk $end
    $var wire 1 r" i_rst_n $end
    $var wire 1 e o_INSTR_ERROR $end
    $var wire 1 f o_instr_finish $end
    $var wire 1 g o_stack_full $end
    $var wire 32 i ALUResult [31:0] $end
    $var wire 1 j stack_empty $end
    $var wire 72 k Instr [71:0] $end
    $var wire 1 n Instr_vld $end
    $var wire 8 o read_pointer_shift_minusone [7:0] $end
    $var wire 1 p shift_vld $end
    $var wire 2 q pop_num [1:0] $end
    $var wire 2 r push_select [1:0] $end
    $var wire 5 s ALUControl [4:0] $end
    $var wire 1 t store_en $end
    $var wire 1 u load_en $end
    $var wire 1 v local_set $end
    $var wire 1 w local_get $end
    $var wire 32 x constant [31:0] $end
    $var wire 8 y read_pointer [7:0] $end
    $var wire 1 z jump_en $end
    $var wire 8 { jump_addr [7:0] $end
    $var wire 32 s" load_data [31:0] $end
    $var wire 32 t" local_mem_data [31:0] $end
    $var wire 1 | load_vld $end
    $var wire 1 } push_num $end
    $var wire 32 # push_data [31:0] $end
    $var wire 96 ~ pop_window [95:0] $end
    $var wire 1 x" wr_req_vld $end
    $var wire 5 y" write_pointer_shift_minusone [4:0] $end
    $var wire 256 z" wr_data [255:0] $end
    $var wire 32 #! A_store_data [31:0] $end
    $var wire 32 $! B_offset [31:0] $end
    $var wire 32 %! C [31:0] $end
    $scope module u_alu $end
     $var wire 32 #! A [31:0] $end
     $var wire 32 $! B [31:0] $end
     $var wire 32 %! C [31:0] $end
     $var wire 5 s ALUControl [4:0] $end
     $var wire 32 i ALUResult [31:0] $end
     $var wire 1 &! C_out $end
     $var wire 32 '! sum [31:0] $end
     $var wire 32 (! eqz [31:0] $end
     $var wire 32 )! eq [31:0] $end
     $var wire 32 *! ne [31:0] $end
     $var wire 32 +! lt_u [31:0] $end
     $var wire 32 ,! gt_u [31:0] $end
     $var wire 32 -! lt_s [31:0] $end
     $var wire 32 .! gt_s [31:0] $end
    $upscope $end
    $scope module u_ctrl_unit $end
     $var wire 1 q" clk $end
     $var wire 1 r" rst_n $end
     $var wire 8 y read_pointer [7:0] $end
     $var wire 72 k Instr [71:0] $end
     $var wire 1 n Instr_vld $end
     $var wire 8 o read_pointer_shift_minusone [7:0] $end
     $var wire 1 p shift_vld $end
     $var wire 1 e INSTR_ERROR $end
     $var wire 1 z jump_en $end
     $var wire 8 { jump_addr [7:0] $end
     $var wire 1 } push_num $end
     $var wire 2 q pop_num [1:0] $end
     $var wire 2 r push_select [1:0] $end
     $var wire 5 s ALUControl [4:0] $end
     $var wire 1 t store_en $end
     $var wire 1 u load_en $end
     $var wire 1 v local_set $end
     $var wire 1 w local_get $end
     $var wire 32 x constant [31:0] $end
     $var wire 1 f instr_finish $end
     $var wire 2 /! instr_pointer_state [1:0] $end
     $var wire 2 $# module_head [1:0] $end
     $var wire 2 %# section_head [1:0] $end
     $var wire 2 &# vector_head [1:0] $end
     $var wire 2 '# vector_content [1:0] $end
     $var wire 32 (# global_variables[0] [31:0] $end
     $var wire 32 )# global_variables[1] [31:0] $end
     $var wire 32 *# global_variables[2] [31:0] $end
     $var wire 32 +# global_variables[3] [31:0] $end
     $var wire 32 ,# global_variables[4] [31:0] $end
     $var wire 32 -# global_variables[5] [31:0] $end
     $var wire 32 .# global_variables[6] [31:0] $end
     $var wire 32 /# global_variables[7] [31:0] $end
     $var wire 32 0# global_variables[8] [31:0] $end
     $var wire 32 1# global_variables[9] [31:0] $end
     $var wire 32 2# global_variables[10] [31:0] $end
     $var wire 32 3# global_variables[11] [31:0] $end
     $var wire 32 4# global_variables[12] [31:0] $end
     $var wire 32 5# global_variables[13] [31:0] $end
     $var wire 32 6# global_variables[14] [31:0] $end
     $var wire 32 7# global_variables[15] [31:0] $end
     $var wire 8 8# global_var_type[0] [7:0] $end
     $var wire 8 9# global_var_type[1] [7:0] $end
     $var wire 8 :# global_var_type[2] [7:0] $end
     $var wire 8 ;# global_var_type[3] [7:0] $end
     $var wire 8 <# global_var_type[4] [7:0] $end
     $var wire 8 =# global_var_type[5] [7:0] $end
     $var wire 8 ># global_var_type[6] [7:0] $end
     $var wire 8 ?# global_var_type[7] [7:0] $end
     $var wire 8 @# global_var_type[8] [7:0] $end
     $var wire 8 A# global_var_type[9] [7:0] $end
     $var wire 8 B# global_var_type[10] [7:0] $end
     $var wire 8 C# global_var_type[11] [7:0] $end
     $var wire 8 D# global_var_type[12] [7:0] $end
     $var wire 8 E# global_var_type[13] [7:0] $end
     $var wire 8 F# global_var_type[14] [7:0] $end
     $var wire 8 G# global_var_type[15] [7:0] $end
     $var wire 32 H# local_variables[0] [31:0] $end
     $var wire 32 I# local_variables[1] [31:0] $end
     $var wire 32 J# local_variables[2] [31:0] $end
     $var wire 32 K# local_variables[3] [31:0] $end
     $var wire 32 L# local_variables[4] [31:0] $end
     $var wire 32 M# local_variables[5] [31:0] $end
     $var wire 32 N# local_variables[6] [31:0] $end
     $var wire 32 O# local_variables[7] [31:0] $end
     $var wire 32 P# local_variables[8] [31:0] $end
     $var wire 32 Q# local_variables[9] [31:0] $end
     $var wire 32 R# local_variables[10] [31:0] $end
     $var wire 32 S# local_variables[11] [31:0] $end
     $var wire 32 T# local_variables[12] [31:0] $end
     $var wire 32 U# local_variables[13] [31:0] $end
     $var wire 32 V# local_variables[14] [31:0] $end
     $var wire 32 W# local_variables[15] [31:0] $end
     $var wire 36 0! LEB128_in [35:0] $end
     $var wire 32 x LEB128_decode [31:0] $end
     $var wire 3 2! LEB128_byte_cnt [2:0] $end
     $var wire 8 3! section_type [7:0] $end
     $var wire 32 4! section_length [31:0] $end
     $var wire 32 5! vector_num [31:0] $end
     $var wire 32 6! vector_cnt [31:0] $end
     $var wire 1 7! type_decode $end
     $var wire 8 8! para_num_reg[0] [7:0] $end
     $var wire 8 9! para_num_reg[1] [7:0] $end
     $var wire 8 :! para_num_reg[2] [7:0] $end
     $var wire 8 ;! para_num_reg[3] [7:0] $end
     $var wire 8 <! para_num_reg[4] [7:0] $end
     $var wire 8 =! para_num_reg[5] [7:0] $end
     $var wire 8 >! para_num_reg[6] [7:0] $end
     $var wire 8 ?! para_num_reg[7] [7:0] $end
     $var wire 8 @! retu_num_reg[0] [7:0] $end
     $var wire 8 A! retu_num_reg[1] [7:0] $end
     $var wire 8 B! retu_num_reg[2] [7:0] $end
     $var wire 8 C! retu_num_reg[3] [7:0] $end
     $var wire 8 D! retu_num_reg[4] [7:0] $end
     $var wire 8 E! retu_num_reg[5] [7:0] $end
     $var wire 8 F! retu_num_reg[6] [7:0] $end
     $var wire 8 G! retu_num_reg[7] [7:0] $end
     $var wire 8 H! function_num_reg [7:0] $end
     $var wire 8 I! function_num_left [7:0] $end
     $var wire 72 J! function_type_list[0] [71:0] $end
     $var wire 72 M! function_type_list[1] [71:0] $end
     $var wire 72 P! function_type_list[2] [71:0] $end
     $var wire 72 S! function_type_list[3] [71:0] $end
     $var wire 72 V! function_type_list[4] [71:0] $end
     $var wire 72 Y! function_type_list[5] [71:0] $end
     $var wire 72 \! function_type_list[6] [71:0] $end
     $var wire 72 _! function_type_list[7] [71:0] $end
     $var wire 72 b! function_type_list[8] [71:0] $end
     $var wire 72 e! function_type_list[9] [71:0] $end
     $var wire 72 h! function_type_list[10] [71:0] $end
     $var wire 72 k! function_type_list[11] [71:0] $end
     $var wire 72 n! function_type_list[12] [71:0] $end
     $var wire 72 q! function_type_list[13] [71:0] $end
     $var wire 72 t! function_type_list[14] [71:0] $end
     $var wire 72 w! function_type_list[15] [71:0] $end
     $var wire 8 z! function_addr_list[0] [7:0] $end
     $var wire 8 {! function_addr_list[1] [7:0] $end
     $var wire 8 |! function_addr_list[2] [7:0] $end
     $var wire 8 }! function_addr_list[3] [7:0] $end
     $var wire 8 ~! function_addr_list[4] [7:0] $end
     $var wire 8 !" function_addr_list[5] [7:0] $end
     $var wire 8 "" function_addr_list[6] [7:0] $end
     $var wire 8 #" function_addr_list[7] [7:0] $end
     $var wire 8 $" function_addr_list[8] [7:0] $end
     $var wire 8 %" function_addr_list[9] [7:0] $end
     $var wire 8 &" function_addr_list[10] [7:0] $end
     $var wire 8 '" function_addr_list[11] [7:0] $end
     $var wire 8 (" function_addr_list[12] [7:0] $end
     $var wire 8 )" function_addr_list[13] [7:0] $end
     $var wire 8 *" function_addr_list[14] [7:0] $end
     $var wire 8 +" function_addr_list[15] [7:0] $end
     $var wire 8 ," function_addr_list[16] [7:0] $end
     $var wire 8 -" function_addr_list[17] [7:0] $end
     $var wire 8 ." function_addr_list[18] [7:0] $end
     $var wire 8 /" function_addr_list[19] [7:0] $end
     $var wire 8 0" function_addr_list[20] [7:0] $end
     $var wire 8 1" function_addr_list[21] [7:0] $end
     $var wire 8 2" function_addr_list[22] [7:0] $end
     $var wire 8 3" function_addr_list[23] [7:0] $end
     $var wire 8 4" function_addr_list[24] [7:0] $end
     $var wire 8 5" function_addr_list[25] [7:0] $end
     $var wire 8 6" function_addr_list[26] [7:0] $end
     $var wire 8 7" function_addr_list[27] [7:0] $end
     $var wire 8 8" function_addr_list[28] [7:0] $end
     $var wire 8 9" function_addr_list[29] [7:0] $end
     $var wire 8 :" function_addr_list[30] [7:0] $end
     $var wire 8 ;" function_addr_list[31] [7:0] $end
     $var wire 8 <" start_function_idx [7:0] $end
     $var wire 1 =" function_num_flag $end
     $var wire 1 >" code_pre_read $end
     $var wire 4 ?" function_store_addr [3:0] $end
     $scope module u_decode $end
      $var wire 36 0! LEB128_in [35:0] $end
      $var wire 32 x uint32_out [31:0] $end
      $var wire 3 2! byte_cnt [2:0] $end
      $var wire 1 @" en1 $end
      $var wire 1 A" en2 $end
      $var wire 1 B" en3 $end
      $var wire 1 C" en4 $end
      $var wire 7 D" dt[0] [6:0] $end
      $var wire 7 E" dt[1] [6:0] $end
      $var wire 7 F" dt[2] [6:0] $end
      $var wire 7 G" dt[3] [6:0] $end
      $var wire 4 H" dt_4 [3:0] $end
     $upscope $end
    $upscope $end
    $scope module u_instr_mem_ctrl $end
     $var wire 32 X# ADDR_WIDTH [31:0] $end
     $var wire 32 X# DATA_WIDTH [31:0] $end
     $var wire 32 Y# DEPTH [31:0] $end
     $var wire 1 q" clk $end
     $var wire 1 r" rst_n $end
     $var wire 1 p shift_vld $end
     $var wire 1 p re $end
     $var wire 8 o read_pointer_shift_minusone [7:0] $end
     $var wire 72 k rd_data [71:0] $end
     $var wire 1 n rd_data_vld $end
     $var wire 1 x" we $end
     $var wire 5 y" write_pointer_shift_minusone [4:0] $end
     $var wire 256 z" wr_data [255:0] $end
     $var wire 1 z jump_en $end
     $var wire 8 { jump_addr [7:0] $end
     $var wire 1 I" instr_finish $end
     $var wire 8 y read_pointer_out [7:0] $end
     $var wire 8 J" read_pointer [7:0] $end
     $var wire 1 K" working $end
     $var wire 1 L" forward $end
     $var wire 8 M" write_pointer [7:0] $end
    $upscope $end
    $scope module u_line_memory $end
     $var wire 32 Z# ADDR_WIDTH [31:0] $end
     $var wire 32 [# DATA_WIDTH [31:0] $end
     $var wire 32 \# DEPTH [31:0] $end
     $var wire 1 q" clk $end
     $var wire 32 i addr [31:0] $end
     $var wire 1 u re $end
     $var wire 32 s" rd_data [31:0] $end
     $var wire 1 | rd_data_vld $end
     $var wire 1 t we $end
     $var wire 32 #! wr_data [31:0] $end
     $var wire 32 U bram[0] [31:0] $end
     $var wire 32 V bram[1] [31:0] $end
     $var wire 32 W bram[2] [31:0] $end
     $var wire 32 X bram[3] [31:0] $end
     $var wire 32 Y bram[4] [31:0] $end
     $var wire 32 Z bram[5] [31:0] $end
     $var wire 32 [ bram[6] [31:0] $end
     $var wire 32 \ bram[7] [31:0] $end
     $var wire 32 ] bram[8] [31:0] $end
     $var wire 32 ^ bram[9] [31:0] $end
     $var wire 32 _ bram[10] [31:0] $end
     $var wire 32 ` bram[11] [31:0] $end
     $var wire 32 a bram[12] [31:0] $end
     $var wire 32 b bram[13] [31:0] $end
     $var wire 32 c bram[14] [31:0] $end
     $var wire 32 d bram[15] [31:0] $end
    $upscope $end
    $scope module u_local_mem $end
     $var wire 32 Z# ADDR_WIDTH [31:0] $end
     $var wire 32 [# DATA_WIDTH [31:0] $end
     $var wire 32 \# DEPTH [31:0] $end
     $var wire 1 q" clk $end
     $var wire 32 x addr [31:0] $end
     $var wire 32 t" rd_data [31:0] $end
     $var wire 1 v we $end
     $var wire 32 #! wr_data [31:0] $end
     $var wire 32 E bram[0] [31:0] $end
     $var wire 32 F bram[1] [31:0] $end
     $var wire 32 G bram[2] [31:0] $end
     $var wire 32 H bram[3] [31:0] $end
     $var wire 32 I bram[4] [31:0] $end
     $var wire 32 J bram[5] [31:0] $end
     $var wire 32 K bram[6] [31:0] $end
     $var wire 32 L bram[7] [31:0] $end
     $var wire 32 M bram[8] [31:0] $end
     $var wire 32 N bram[9] [31:0] $end
     $var wire 32 O bram[10] [31:0] $end
     $var wire 32 P bram[11] [31:0] $end
     $var wire 32 Q bram[12] [31:0] $end
     $var wire 32 R bram[13] [31:0] $end
     $var wire 32 S bram[14] [31:0] $end
     $var wire 32 T bram[15] [31:0] $end
    $upscope $end
    $scope module u_stack $end
     $var wire 1 q" clk $end
     $var wire 1 r" rst_n $end
     $var wire 1 } push_num $end
     $var wire 2 q pop_num [1:0] $end
     $var wire 32 # push_data [31:0] $end
     $var wire 96 ~ pop_window [95:0] $end
     $var wire 1 g stack_full $end
     $var wire 1 j stack_empty $end
     $var wire 512 N" stack_reg [511:0] $end
     $var wire 512 ^" stack_reg_after_pop [511:0] $end
     $var wire 512 $ stack_reg_after_push [511:0] $end
     $var wire 4 n" pointer [3:0] $end
     $var wire 4 o" pointer_after_pop [3:0] $end
     $var wire 4 p" pointer_after_push [3:0] $end
     $var wire 544 4 push_mid_state [543:0] $end
    $upscope $end
   $upscope $end
  $upscope $end
 $upscope $end
$enddefinitions $end


#0
b00000000000000000000000000000000 #
b00000000000000000000000000000000000000000000000000000000000000000000000000000000000000000000000000000000000000000000000000000000000000000000000000000000000000000000000000000000000000000000000000000000000000000000000000000000000000000000000000000000000000000000000000000000000000000000000000000000000000000000000000000000000000000000000000000000000000000000000000000000000000000000000000000000000000000000000000000000000000000000000000000000000000000000000000000000000000000000000000000000000000000000000000000000 $
b0000000000000000000000000000000000000000000000000000000000000000000000000000000000000000000000000000000000000000000000000000000000000000000000000000000000000000000000000000000000000000000000000000000000000000000000000000000000000000000000000000000000000000000000000000000000000000000000000000000000000000000000000000000000000000000000000000000000000000000000000000000000000000000000000000000000000000000000000000000000000000000000000000000000000000000000000000000000000000000000000000000000000000000000000000000000000000000000000000000000000000 4
b00000000000000000000000000001010 E
b00000000000000000000000000000110 F
b00000000000000000000000000000000 G
b00000000000000000000000000000000 H
b00000000000000000000000000000000 I
b00000000000000000000000000000000 J
b00000000000000000000000000000000 K
b00000000000000000000000000000000 L
b00000000000000000000000000000000 M
b00000000000000000000000000000000 N
b00000000000000000000000000000000 O
b00000000000000000000000000000000 P
b00000000000000000000000000000000 Q
b00000000000000000000000000000000 R
b00000000000000000000000000000000 S
b00000000000000000000000000000000 T
b00000000000000000000000000000000 U
b00000000000000000000000000000000 V
b00000000000000000000000000000000 W
b00000000000000000000000000000000 X
b00000000000000000000000000000000 Y
b00000000000000000000000000000000 Z
b00000000000000000000000000000000 [
b00000000000000000000000000000000 \
b00000000000000000000000000000000 ]
b00000000000000000000000000000000 ^
b00000000000000000000000000000000 _
b00000000000000000000000000000000 `
b00000000000000000000000000000000 a
b00000000000000000000000000000000 b
b00000000000000000000000000000000 c
b00000000000000000000000000000000 d
0e
0f
0g
b00000000000000000000000000000000 h
b00000000000000000000000000000000 i
1j
b000000000000000000000000000000000000000000000000000000000000000000000000 k
0n
b00000111 o
0p
b00 q
b00 r
b00000 s
0t
0u
0v
0w
b00000000000000000000000000000000 x
b00000000 y
0z
b00000000 {
0|
0}
b000000000000000000000000000000000000000000000000000000000000000000000000000000000000000000000000 ~
b00000000000000000000000000000000 #!
b00000000000000000000000000000000 $!
b00000000000000000000000000000000 %!
0&!
b00000000000000000000000000000000 '!
b00000000000000000000000000000001 (!
b00000000000000000000000000000001 )!
b00000000000000000000000000000000 *!
b00000000000000000000000000000000 +!
b00000000000000000000000000000000 ,!
b00000000000000000000000000000000 -!
b00000000000000000000000000000000 .!
b00 /!
b000000000000000000000000000000000000 0!
b001 2!
b00000000 3!
b00000000000000000000000000000000 4!
b00000000000000000000000000000000 5!
b00000000000000000000000000000000 6!
07!
b00000000 8!
b00000000 9!
b00000000 :!
b00000000 ;!
b00000000 <!
b00000000 =!
b00000000 >!
b00000000 ?!
b00000000 @!
b00000000 A!
b00000000 B!
b00000000 C!
b00000000 D!
b00000000 E!
b00000000 F!
b00000000 G!
b00000000 H!
b00000000 I!
b000000000000000000000000000000000000000000000000000000000000000000000000 J!
b000000000000000000000000000000000000000000000000000000000000000000000000 M!
b000000000000000000000000000000000000000000000000000000000000000000000000 P!
b000000000000000000000000000000000000000000000000000000000000000000000000 S!
b000000000000000000000000000000000000000000000000000000000000000000000000 V!
b000000000000000000000000000000000000000000000000000000000000000000000000 Y!
b000000000000000000000000000000000000000000000000000000000000000000000000 \!
b000000000000000000000000000000000000000000000000000000000000000000000000 _!
b000000000000000000000000000000000000000000000000000000000000000000000000 b!
b000000000000000000000000000000000000000000000000000000000000000000000000 e!
b000000000000000000000000000000000000000000000000000000000000000000000000 h!
b000000000000000000000000000000000000000000000000000000000000000000000000 k!
b000000000000000000000000000000000000000000000000000000000000000000000000 n!
b000000000000000000000000000000000000000000000000000000000000000000000000 q!
b000000000000000000000000000000000000000000000000000000000000000000000000 t!
b000000000000000000000000000000000000000000000000000000000000000000000000 w!
b00000000 z!
b00000000 {!
b00000000 |!
b00000000 }!
b00000000 ~!
b00000000 !"
b00000000 ""
b00000000 #"
b00000000 $"
b00000000 %"
b00000000 &"
b00000000 '"
b00000000 ("
b00000000 )"
b00000000 *"
b00000000 +"
b00000000 ,"
b00000000 -"
b00000000 ."
b00000000 /"
b00000000 0"
b00000000 1"
b00000000 2"
b00000000 3"
b00000000 4"
b00000000 5"
b00000000 6"
b00000000 7"
b00000000 8"
b00000000 9"
b00000000 :"
b00000000 ;"
b00000000 <"
1="
0>"
b0000 ?"
0@"
0A"
0B"
0C"
b0000000 D"
b0000000 E"
b0000000 F"
b0000000 G"
b0000 H"
1I"
b00000000 J"
0K"
0L"
b00000000 M"
b00000000000000000000000000000000000000000000000000000000000000000000000000000000000000000000000000000000000000000000000000000000000000000000000000000000000000000000000000000000000000000000000000000000000000000000000000000000000000000000000000000000000000000000000000000000000000000000000000000000000000000000000000000000000000000000000000000000000000000000000000000000000000000000000000000000000000000000000000000000000000000000000000000000000000000000000000000000000000000000000000000000000000000000000000000000 N"
b00000000000000000000000000000000000000000000000000000000000000000000000000000000000000000000000000000000000000000000000000000000000000000000000000000000000000000000000000000000000000000000000000000000000000000000000000000000000000000000000000000000000000000000000000000000000000000000000000000000000000000000000000000000000000000000000000000000000000000000000000000000000000000000000000000000000000000000000000000000000000000000000000000000000000000000000000000000000000000000000000000000000000000000000000000000 ^"
b0000 n"
b0000 o"
b0000 p"
0q"
1r"
b00000000000000000000000000000000 s"
b00000000000000000000000000001010 t"
b00000000 u"
b00000000000000000000000000000000 v"
0w"
0x"
b00000 y"
b0000000000000000000000000000000000000000000000000000000000000000000000000000000000000000000000000000000000000000000000000000000000000000000000000000000000000000000000000000000000000000000000000000000000000000000000000000000000000000000000000000000000000000 z"
b00 $#
b01 %#
b10 &#
b11 '#
b00000000000000000000000000000000 (#
b00000000000000000000000000000000 )#
b00000000000000000000000000000000 *#
b00000000000000000000000000000000 +#
b00000000000000000000000000000000 ,#
b00000000000000000000000000000000 -#
b00000000000000000000000000000000 .#
b00000000000000000000000000000000 /#
b00000000000000000000000000000000 0#
b00000000000000000000000000000000 1#
b00000000000000000000000000000000 2#
b00000000000000000000000000000000 3#
b00000000000000000000000000000000 4#
b00000000000000000000000000000000 5#
b00000000000000000000000000000000 6#
b00000000000000000000000000000000 7#
b00000000 8#
b00000000 9#
b00000000 :#
b00000000 ;#
b00000000 <#
b00000000 =#
b00000000 >#
b00000000 ?#
b00000000 @#
b00000000 A#
b00000000 B#
b00000000 C#
b00000000 D#
b00000000 E#
b00000000 F#
b00000000 G#
b00000000000000000000000000000000 H#
b00000000000000000000000000000000 I#
b00000000000000000000000000000000 J#
b00000000000000000000000000000000 K#
b00000000000000000000000000000000 L#
b00000000000000000000000000000000 M#
b00000000000000000000000000000000 N#
b00000000000000000000000000000000 O#
b00000000000000000000000000000000 P#
b00000000000000000000000000000000 Q#
b00000000000000000000000000000000 R#
b00000000000000000000000000000000 S#
b00000000000000000000000000000000 T#
b00000000000000000000000000000000 U#
b00000000000000000000000000000000 V#
b00000000000000000000000000000000 W#
b00000000000000000000000000001000 X#
b00000000000000000000000100000000 Y#
b00000000000000000000000000000100 Z#
b00000000000000000000000000100000 [#
b00000000000000000000000000010000 \#
#1
1e
b00000000000000000000000000000001 h
1q"
#2
0e
b00000000000000000000000000000000 h
b000000010000000000000000000000000000000101101101011100110110000100000000 k
1n
1p
b00000000000000000000000001100001 x
b000000000001011011010111001101100001 0!
b1100001 D"
b1110011 E"
b1101101 F"
b0000001 G"
0I"
1K"
1L"
b00110100 M"
0q"
0r"
b00000000000000000000000000000110 t"
#3
1q"
#4
0q"
1r"
#5
b00000000000000000000000000000001 h
b011111110000001001100000000000000000000001100000000000100000101000000001 k
b00000001 o
b00000000000000000000000000001010 x
b00001000 y
b01 /!
b000000000000011000000000001000001010 0!
b0001010 D"
b0000010 E"
b1100000 F"
b0000000 G"
b00001000 J"
1q"
b00000000000000000000000000000000 t"
#6
0q"
#7
b00000000000000000000000000000010 h
b000000010111111101111111000000100110000000000000000000000110000000000010 k
b00000000 o
b00000000000000000000000000000010 x
b00001010 y
b10 /!
b000000000000000000000110000000000010 0!
b00000001 3!
b00000000000000000000000000001010 4!
b0000010 D"
b1100000 E"
b0000000 F"
b00001010 J"
1q"
#8
0q"
#9
b00000000000000000000000000000011 h
b011111110000000101111111011111110000001001100000000000000000000001100000 k
b00000001 o
b00000000000000000000000000000000 x
b00001011 y
b11 /!
b111100000010011000000000000000000000 0!
b00000000000000000000000000000010 5!
b0000000 D"
b0000000 E"
b1100000 F"
b0000010 G"
b1111 H"
b00001011 J"
1q"
b00000000000000000000000000001010 t"
#10
0q"
#11
b00000000000000000000000000000100 h
b000000110000001101111111000000010111111101111111000000100110000000000000 k
b00000000 o
b00000000000000000000000001100000 x
b00001101 y
b000101111111011111110000001001100000 0!
17!
b1100000 D"
b0000010 E"
b1111111 F"
b1111111 G"
b0001 H"
b00001101 J"
1q"
#12
0q"
#13
b00000000000000000000000000000101 h
b000000100000001100000011011111110000000101111111011111110000001001100000 k
b00000011 o
b00000000000000000000000000000010 x
b00001110 y
b111100000001011111110111111100000010 0!
b00000000000000000000000000000001 6!
07!
b0000010 D"
b1111111 E"
b0000001 G"
b1111 H"
b00001110 J"
1q"
b00000000000000000000000000000000 t"
#14
0q"
#15
b00000000000000000000000000000110 h
b000010000000011100000001000000000000001000000011000000110111111100000001 k
b00000001 o
b00000000000000000000000001111111 x
b00010010 y
b000000000010000000110000001101111111 0!
17!
b00000010 9!
b1111111 D"
b0000011 E"
b0000011 F"
b0000010 G"
b0000 H"
b00010010 J"
1q"
#16
0q"
#17
b00000000000000000000000000000111 h
b000001000000000100001000000001110000000100000000000000100000001100000011 k
b00000000000000000000000000000011 x
b00010100 y
b01 /!
b011100000001000000000000001000000011 0!
b00000000000000000000000000000000 6!
07!
b00000001 A!
b0000011 D"
b0000010 E"
b0000000 F"
b0000001 G"
b0111 H"
b00010100 J"
1q"
#18
0q"
#19
b00000000000000000000000000001000 h
b011000010110110100000100000000010000100000000111000000010000000000000010 k
b00000000 o
b00000000000000000000000000000010 x
b00010110 y
b10 /!
b100000000111000000010000000000000010 0!
b00000011 3!
b00000000000000000000000000000011 4!
b0000010 D"
b0000000 E"
b0000001 F"
b0000111 G"
b1000 H"
b00010110 J"
1q"
#20
0q"
#21
b00000000000000000000000000001001 h
b011010010110000101101101000001000000000100001000000001110000000100000000 k
b00000001 o
b00000000000000000000000000000001 x
b00010111 y
b11 /!
b010000000001000010000000011100000001 0!
b00000010 H!
b00000010 I!
b0000001 D"
b0000111 E"
b0001000 F"
b0000001 G"
b0100 H"
b00010111 J"
1q"
b00000000000000000000000000000110 t"
#22
0q"
#23
b00000000000000000000000000001010 h
b000000000110111001101001011000010110110100000100000000010000100000000111 k
b00000000000000000000000000001000 x
b00011001 y
b01 /!
b000101101101000001000000000100001000 0!
b011010010110000101101101000001000000000100001000000001110000000100000000 J!
b0001000 D"
b0000001 E"
b0000100 F"
b1101101 G"
b0001 H"
b00011001 J"
1q"
b00000000000000000000000000000000 t"
#24
0q"
#25
b00000000000000000000000000001011 h
b000010000000000000000000011011100110100101100001011011010000010000000001 k
b00000111 o
b00000000000000000000000000000001 x
b00011011 y
b10 /!
b100101100001011011010000010000000001 0!
b00000111 3!
b00000000000000000000000000001000 4!
b0000001 D"
b0000100 E"
b1101101 F"
b1100001 G"
b1001 H"
b00011011 J"
1q"
b00000000000000000000000000000110 t"
#26
0q"
#27
b00000000000000000000000000001100 h
b010000010000000000010000000000100010000100001010000000000000000100001000 k
b00000001 o
b00100011 y
b01 /!
b001000100001000010100000000000000001 0!
b00000000000000000000000000000001 5!
b0000000 E"
b0001010 F"
b0100001 G"
b0010 H"
b00100011 J"
1q"
#28
0q"
#29
b00000000000000000000000000001101 h
b010000010000110001000001000000000001000000000010001000010000101000000000 k
b00000000 o
b00000000000000000000000000000000 x
b00100101 y
b10 /!
b000000000010001000010000101000000000 0!
b00001000 3!
b00000000000000000000000000000001 4!
b0000000 D"
b0001010 E"
b0100001 F"
b0000010 G"
b0000 H"
b00100101 J"
1q"
b00000000000000000000000000001010 t"
#30
0q"
#31
b00000000000000000000000000001110 h
b001000100100000100001100010000010000000000010000000000100010000100001010 k
b00000001 o
b00000000000000000000000000100001 x
b00100110 y
b01 /!
b000100000000000100000000001000100001 0!
b00000000000000000000000000000000 5!
b0100001 D"
b0000010 E"
b0010000 F"
b0000000 G"
b0001 H"
b00100110 J"
1q"
b00000000000000000000000000000110 t"
#32
0q"
#33
b00000000000000000000000000001111 h
b001110000100000100100010010000010000110001000001000000000001000000000010 k
b00000000 o
b00000000000000000000000000000010 x
b00101000 y
b10 /!
b110001000001000000000001000000000010 0!
b00001010 3!
b00000000000000000000000000100001 4!
b0000010 D"
b0010000 E"
b0000000 F"
b1000001 G"
b1100 H"
b00101000 J"
1q"
b00000000000000000000000000000000 t"
#34
0q"
#35
b00000000000000000000000000010000 h
b010000010011100001000001001000100100000100001100010000010000000000010000 k
b00010000 o
b00000000000000000000000000010000 x
b00101001 y
b11 /!
b000100001100010000010000000000010000 0!
b00000000000000000000000000000010 5!
1>"
b0010000 D"
b0000000 E"
b1000001 F"
b0001100 G"
b0001 H"
b00101001 J"
1q"
b00000000000000000000000000001010 t"
#36
0q"
#37
b00000000000000000000000000010001 h
b001000000000000100100000000000000010000001111111000000010000000100001110 k
b00001110 o
b00000000000000000000000000001110 x
b00111010 y
b000001111111000000010000000100001110 0!
b00000000000000000000000000000001 6!
b00101001 z!
b0001110 D"
b0000001 E"
b0000001 F"
b1111111 G"
b0000 H"
b00111010 J"
1q"
b00000000000000000000000000000000 t"
#38
0q"
#39
b00000000000000000000000000001100 #
b00000000000000000000000000000000000000000000000000000000000000000000000000000000000000000000000000000000000000000000000000000000000000000000000000000000000000000000000000000000000000000000000000000000000000000000000000000000000000000000000000000000000000000000000000000000000000000000000000000000000000000000000000000000000000000000000000000000000000000000000000000000000000000000000000000000000000000000000000000000000000000000000000000000000000000000000000000000000000000000000000000000000000000000000000001100 $
b0000000000000000000000000000000000000000000000000000000000000000000000000000000000000000000000000000000000000000000000000000000000000000000000000000000000000000000000000000000000000000000000000000000000000000000000000000000000000000000000000000000000000000000000000000000000000000000000000000000000000000000000000000000000000000000000000000000000000000000000000000000000000000000000000000000000000000000000000000000000000000000000000000000000000000000000000000000000000000000000000000000000000000000000000000000000000000000000000000000000001100 4
b00000000000000000000000000010010 h
b000000001100111001000001001110000100000100100010010000010000110001000001 k
b00000001 o
b10 r
b00000000000000000000000000001100 x
b00101011 y
1z
b00101011 {
1}
b100001000001001000100100000100001100 0!
b00000000000000000000000000000000 6!
b00111010 {!
0>"
b0001100 D"
b1000001 E"
b0100010 F"
b1000001 G"
b1000 H"
b01001001 J"
b0001 p"
1q"
#40
0q"
